"","CAS_2021092008571132","20:00","DOMICILIO","1","0.33333333","","0","","","","","","","","","","","","","","","","00","","205","1","","55","680/ND","CORPO","RAPPORTOZ","","","","ASPORTO00001CAS_2021092008571132","","","1","","","","FRUTTI DI MARE ","1","10.00","","","","","10","0.00","","668","","","","","","","","","","","N","","","","","","","","001","P","","000","1","CASSA","","3000001","","","","","","DAVIDE CAVALLINI","CONTO","","","CASSA","1","","","1","","000001","","","","","","","","0.00","0.00","0.00","10.00","N","2021-09-20","2021-09-20","08:57:11","","1","0","9.09090909","0","0","0","0","0.90909091","0","0","0","10.0","0.00","","","","0","N","","2","10.0","ASPORTO00001CAS_2021092008571132","null"
"","CAS_2021092008571132","20:00","DOMICILIO","1","0.33333333","","0","","","","","","","","","","","","","","","","00","","18","1","","55","680/ND","CORPO","RAPPORTOZ","","","","ASPORTO00001CAS_2021092008571132","","","2","","","","DIAVOLA","1","8.00","","","","","10","0.00","","668","","","","","","","","","","","N","","","","","","","","002","P","","000","1","CASSA","","3000001","","","","","","DAVIDE CAVALLINI","CONTO","","","CASSA","1","","","1","","000001","","","","","","","","0.00","0.00","0.00","8.00","N","2021-09-20","2021-09-20","08:57:11","","1","0","7.27272727","0","0","0","0","0.72727273","0","0","0","8.0","0.00","","","","0","N","","2","8.0","ASPORTO00001CAS_2021092008571132","null"
"","CAS_2021092008571132","20:00","DOMICILIO","1","0.33333333","","0","","","","","","","","","","","","","","","","00","","11","1","","55","680/ND","CORPO","RAPPORTOZ","","","","ASPORTO00001CAS_2021092008571132","","","3","","","","ROMANA","1","7.00","","","","","10","0.00","","668","","","","","","","","","","","N","","","","","","","","003","P","","000","1","CASSA","","3000001","","","","","","DAVIDE CAVALLINI","CONTO","","","CASSA","1","","","1","","000001","","","","","","","","0.00","0.00","0.00","7.00","N","2021-09-20","2021-09-20","08:57:11","","1","0","6.36363636","0","0","0","0","0.63636364","0","0","0","7.0","0.00","","","","0","N","","2","7.0","ASPORTO00001CAS_2021092008571132","null"
"","CAS_20210920085735895","20:00","RITIRO","1","","","0","","","","","","","","","","","","","","","","00","","21","1","","55","680/ND","CORPO","RAPPORTOZ","","","","ASPORTO00001CAS_20210920085735895","","","1","","","","SALSICCIA FRIARIELLI","1","8.00","","","","","10","0.00","","668","","","","","","","","","","","N","","","","","","","","001","P","","000","1","CASSA","","LINDA","","","","","","LINDA ","CONTO","","","CASSA","1","","","1","","000001","","","","","","","","0.00","0.00","0.00","8.00","N","2021-09-20","2021-09-20","08:57:35","","1","0","7.27272727","0","0","0","0","0.72727273","0","0","0","8.0","0.00","","","","0","N","","2","8.0","ASPORTO00001CAS_20210920085735895","null"
"","CAS_20210920085735895","20:00","RITIRO","1","","","0","","","","","","","","","","","","","","","","00","","18","1","","55","680/ND","CORPO","RAPPORTOZ","","","","ASPORTO00001CAS_20210920085735895","","","2","","","","DIAVOLA","1","8.00","","","","","10","0.00","","668","","","","","","","","","","","N","","","","","","","","002","P","","000","1","CASSA","","LINDA","","","","","","LINDA ","CONTO","","","CASSA","1","","","1","","000001","","","","","","","","0.00","0.00","0.00","8.00","N","2021-09-20","2021-09-20","08:57:36","","1","0","7.27272727","0","0","0","0","0.72727273","0","0","0","8.0","0.00","","","","0","N","","2","8.0","ASPORTO00001CAS_20210920085735895","null"
"","CAS_20210920085735895","20:00","RITIRO","1","","","0","","","","","","","","","","","","","","","","00","","13","1","","55","680/ND","CORPO","RAPPORTOZ","","","","ASPORTO00001CAS_20210920085735895","","","3","","","","TONNO CIPOLLA","1","6.50","","","","","10","0.00","","668","","","","","","","","","","","N","","","","","","","","003","P","","000","1","CASSA","","LINDA","","","","","","LINDA ","CONTO","","","CASSA","1","","","1","","000001","","","","","","","","0.00","0.00","0.00","6.50","N","2021-09-20","2021-09-20","08:57:36","","1","0","5.90909091","0","0","0","0","0.59090909","0","0","0","6.5","0.00","","","","0","N","","2","6.5","ASPORTO00001CAS_20210920085735895","null"
"","CAS_20210920085806862","08:57","RITIRO","1","","","0","","","","","","","","","","","","","SUBITO","","","00","","21","1","","55","680/ND","CORPO","RAPPORTOZ","","","","ASPORTO00001CAS_20210920085806862","","","1","","","","SALSICCIA FRIARIELLI","1","8.00","","","","","10","0.00","","668","","","","","","","","","","","N","","","","","","","","001","P","","000","1","CASSA","","P1-000-01","","","","","","P1-000-01","CONTO","","","CASSA","1","","","1","","000001","","","","","","","","0.00","0.00","0.00","8.00","N","2021-09-20","2021-09-20","08:58:06","","1","0","7.27272727","0","0","0","0","0.72727273","0","0","0","8.0","0.00","","","","0","N","","2","8.0","ASPORTO00001CAS_20210920085806862","null"
"","CAS_20210920085806862","08:57","RITIRO","1","","","0","","","","","","","","","","","","","SUBITO","","","00","","14","1","","55","680/ND","CORPO","RAPPORTOZ","","","","ASPORTO00001CAS_20210920085806862","","","2","","","","CAPRICCIOSA","1","7.00","","","","","10","0.00","","668","","","","","","","","","","","N","","","","","","","","002","P","","000","1","CASSA","","P1-000-01","","","","","","P1-000-01","CONTO","","","CASSA","1","","","1","","000001","","","","","","","","","","","7.00","N","2021-09-20","2021-09-20","08:58:07","","1","0","6.36363636","0","0","0","0","0.63636364","0","0","0","7.0","0.00","","","","0","N","","2","7.0","ASPORTO00001CAS_20210920085806862","null"
"","CAS_20210920085806862","08:57","RITIRO","1","","","0","","","","","","","","","","","","","SUBITO","","","00","","18","1","","55","680/ND","CORPO","RAPPORTOZ","","","","ASPORTO00001CAS_20210920085806862","","","3","","","","DIAVOLA","1","8.00","","","","","10","0.00","","668","","","","","","","","","","","N","","","","","","","","003","P","","000","1","CASSA","","P1-000-01","","","","","","P1-000-01","CONTO","","","CASSA","1","","","1","","000001","","","","","","","","0.00","0.00","0.00","8.00","N","2021-09-20","2021-09-20","08:58:07","","1","0","7.27272727","0","0","0","0","0.72727273","0","0","0","8.0","0.00","","","","0","N","","2","8.0","ASPORTO00001CAS_20210920085806862","null"
"","CAS_20210920090322283","09:03","RITIRO","2","","","0","","","","","","","","","","","","","SUBITO","","","00","","8","1","","55","680/ND","CORPO","RAPPORTOZ","","","","ASPORTO00001CAS_20210920090322283","","","1","","","","4 STAGIONI","1","8.00","","","","","10","0.00","","668","","","","","","","","","","","N","","","","","","","","001","P","","000","1","CASSA","","LINDA","","","","","","LINDA ","CONTO","","","CASSA","1","","","1","","000001","","","","","","","","9.00","9.00","9.00","8.00","N","2021-09-20","2021-09-20","09:03:22","","1","0","7.27272727","0","0","0","0","0.72727273","0","0","0","8.0","0.00","","","","1","N","","2","8.0","ASPORTO00001CAS_20210920090322283","null"
"","CAS_20210920090322283","09:03","RITIRO","2","","","0","","","","","","","","","","","","","SUBITO","","","00","","21","1","","55","680/ND","CORPO","RAPPORTOZ","","","","ASPORTO00001CAS_20210920090322283","","","2","","","","SALSICCIA FRIARIELLI","1","0.00","","","","","10","0.00","","668","","","","","","","","","","","N","","","","","","","","002","P","","000","1","CASSA","","LINDA","","","","","","LINDA ","CONTO","","","CASSA","1","","","1","","000001","","","","","","","","0.00","0.00","0.00","0.00","N","2021-09-20","2021-09-20","09:03:22","","1","0","0.0","0","0","0","0","0.0","0","0","0","0.0","0.00","","","","1","N","","2","0.0","ASPORTO00001CAS_20210920090322283","null"
"","CAS_20210920090435331","","","","","","0","","","","","","","","","","","","","","","","","","","1","1","55","","CORPO","CANCELLATO DURANTE CREAZIONE COMANDA 20-09-21 09:05","","","","ASPORTO00001CAS_20210920090435331","","","1","","","","PIZZA DUE GUSTI","1","0.00","","","","","10","0.00","","668","","","","","","","","","","","N","","","","","","","","001","P","","000","1","CASSA","","","","","","","","","CONTO","","","CASSA","1","","","1","","000001","","","","","","","","","","","7.00","N","2021-09-20","2021-09-20","09:04:35","","1","5.73770492","0","0","0","0","1.26229508","0","0","0","0","7.0","","","CASSA","","","N","null","1","7.0","ASPORTO00001CAS_20210920090435331","null"
"","CAS_20210920090435331","","","","","","0","","","","","","","","","","","","","","","","00","","13","1","","55","680/ND","CORPO","CANCELLATO DURANTE CREAZIONE COMANDA 20-09-21 09:05","","","","ASPORTO00001CAS_20210920090435331","","","2","","","","= 1/2 TONNO CIPOLLA","1","6.50","","","","","10","0.00","","668","","","","","","","","","","","N","","","","","","","","001 002","P","","000","1","CASSA","","","","","","","","","CONTO","","","CASSA","1","","","1","","000001","","","","","","","","0.00","0.00","0.00","","N","2021-09-20","2021-09-20","09:04:36","","1","0.0","0","0","0","0","0.0","0","0","0","0","0.0","0.00","","CASSA","","","N","null","1","0.0","ASPORTO00001CAS_20210920090435331","null"
"","CAS_20210920090435331","","","","","","0","","","","","","","","","","","","","","","","00","","19","1","","55","680/ND","CORPO","CANCELLATO DURANTE CREAZIONE COMANDA 20-09-21 09:05","","","","ASPORTO00001CAS_20210920090435331","","","3","","","","= 1/2 BUFALINA","1","7.00","","","","","10","0.00","","668","","","","","","","","","","","N","","","","","","","","001 003","P","","000","1","CASSA","","","","","","","","","CONTO","","","CASSA","1","","","1","","000001","","","","","","","","","","","","N","2021-09-20","2021-09-20","09:04:43","","1","0.0","0","0","0","0","0.0","0","0","0","0","0.0","0.00","","CASSA","","","N","null","1","0.0","ASPORTO00001CAS_20210920090435331","null"
"","CAS_20210920090508378","","","","","","0","","","","","","","","","","","","","","","","","","","1","1","55","","CORPO","CANCELLATO DURANTE CREAZIONE COMANDA 20-09-21 09:05","","","","ASPORTO00001CAS_20210920090508378","","","1","","","","PIZZA DUE GUSTI","1","0.00","","","","","10","0.00","","668","","","","","","","","","","","N","","","","","","","","001","P","","000","1","CASSA","","","","","","","","","CONTO","","","CASSA","1","","","1","","000001","","","","","","","","","","","7.00","N","2021-09-20","2021-09-20","09:05:08","","1","5.73770492","0","0","0","0","1.26229508","0","0","0","0","7.0","","","CASSA","","","N","null","1","7.0","ASPORTO00001CAS_20210920090508378","null"
"","CAS_20210920090508378","","","","","","0","","","","","","","","","","","","","","","","00","","13","1","","55","680/ND","CORPO","CANCELLATO DURANTE CREAZIONE COMANDA 20-09-21 09:05","","","","ASPORTO00001CAS_20210920090508378","","","2","","","","= 1/2 TONNO CIPOLLA","1","6.50","","","","","10","0.00","","668","","","","","","","","","","","N","","","","","","","","001 002","P","","000","1","CASSA","","","","","","","","","CONTO","","","CASSA","1","","","1","","000001","","","","","","","","0.00","0.00","0.00","","N","2021-09-20","2021-09-20","09:05:11","","1","0.0","0","0","0","0","0.0","0","0","0","0","0.0","0.00","","CASSA","","","N","null","1","0.0","ASPORTO00001CAS_20210920090508378","null"
"","CAS_20210920090508378","","","","","","0","","","","","","","","","","","","","","","","00","","19","1","","55","680/ND","CORPO","CANCELLATO DURANTE CREAZIONE COMANDA 20-09-21 09:05","","","","ASPORTO00001CAS_20210920090508378","","","3","","","","= 1/2 BUFALINA","1","7.00","","","","","10","0.00","","668","","","","","","","","","","","N","","","","","","","","001 003","P","","000","1","CASSA","","","","","","","","","CONTO","","","CASSA","1","","","1","","000001","","","","","","","","","","","","N","2021-09-20","2021-09-20","09:05:13","","1","0.0","0","0","0","0","0.0","0","0","0","0","0.0","0.00","","CASSA","","","N","null","1","0.0","ASPORTO00001CAS_20210920090508378","null"
"","CAS_20210920090523382","","","","","","0","","","","","","","","","","","","","","","","00","","4","1","","55","680/ND","CORPO","CANCELLATO DURANTE CREAZIONE COMANDA 20-09-21 09:06","","","","ASPORTO00001CAS_20210920090523382","","","1","","","","MAXI MARGHERITA","1","10.00","","","","","10","0.00","","668","","","","","","","","","","","N","","","","","","","","001","P","","000","1","CASSA","","","","","","","","","CONTO","","","CASSA","1","","","2","","000001","","","","","","","","0.00","0.00","0.00","10.00","N","2021-09-20","2021-09-20","09:05:23","","1","0","9.09090909","0","0","0","0","0.90909091","0","0","0","10.0","10.00","","CASSA","","","N","null","2","10.0","ASPORTO00001CAS_20210920090523382","null"
"","CAS_20210920090523382","","","","","","0","","","","","","","","","","","","","","","","00","","10","1","","55","680/ND","CORPO","CANCELLATO DURANTE CREAZIONE COMANDA 20-09-21 09:05","","","","ASPORTO00001CAS_20210920090523382","","","2","","","","MAXI NAPOLI","1","0.00","","","","","10","0.00","","668","","","","","","","","","","","N","","","","","","","","002","P","","000","1","CASSA","","","","","","","","","CONTO","","","CASSA","1","","","2","","000001","","","","","","","","0.00","0.00","0.00","0.00","N","2021-09-20","2021-09-20","09:05:53","","1","0","0.0","0","0","0","0","0.0","0","0","0","0.0","0.00","","CASSA","","","N","null","2","0.0","ASPORTO00001CAS_20210920090523382","null"
"","CAS_20210920090523382","","","","","","0","","","","","","","","","","","","","","","","00","","10","1","","55","680/ND","CORPO","CANCELLATO DURANTE CREAZIONE COMANDA 20-09-21 09:05","","","","ASPORTO00001CAS_20210920090523382","","","3","","","","NAPOLI","1","6.50","","","","","10","0.00","","668","","","","","","","","","","","N","","","","","","","","003","P","","000","1","CASSA","","","","","","","","","CONTO","","","CASSA","1","","","1","","000001","","","","","","","","0.00","0.00","0.00","6.50","N","2021-09-20","2021-09-20","09:05:56","","1","0","5.90909091","0","0","0","0","0.59090909","0","0","0","6.5","0.00","","CASSA","","","N","null","2","6.5","ASPORTO00001CAS_20210920090523382","null"
"","CAS_20210920090601788","","","","","","0","","","","","","","","","","","","","","","","","","","1","1","55","","CORPO","CANCELLATO CONTO INTERO 20-09-21 09:06","","","","ASPORTO00001CAS_20210920090601788","","","1","","","","PIZZA UN METRO","1","0.00","","","","","undefined","0.00","","668","","","","","","","","","","","N","","","","","","","","001","P","","000","1","CASSA","","","","","","","","","CONTO","","","CASSA","1","","","4","","000001","","","","","","","","","","","0.00","N","2021-09-20","2021-09-20","09:06:01","","1","0.0","0","0","0","0","0.0","0","0","0","0","0.0","","","CASSA","","","N","null","1","0.0","ASPORTO00001CAS_20210920090601788","null"
"","CAS_20210920090601788","","","","","","0","","","","","","","","","","","","","","","","00","","10","1","","55","680/ND","CORPO","CANCELLATO CONTO INTERO 20-09-21 09:06","","","","ASPORTO00001CAS_20210920090601788","","","2","","","","=1/4 NAPOLI","1","0.00","","","","","undefined","0.00","","668","","","","","","","","","","","N","","","","","","","","001 002","P","","000","1","CASSA","","","","","","","","","CONTO","","","CASSA","1","","","1","","000001","","","","","","","","0.00","0.00","0.00","0.00","N","2021-09-20","2021-09-20","09:06:33","","1","0.0","0","0","0","0","0.0","0","0","0","0","0.0","0.00","","CASSA","","","N","null","1","0.0","ASPORTO00001CAS_20210920090601788","null"
"","CAS_20210920090601788","","","","","","0","","","","","","","","","","","","","","","","00","","19","1","","55","680/ND","CORPO","CANCELLATO CONTO INTERO 20-09-21 09:06","","","","ASPORTO00001CAS_20210920090601788","","","3","","","","=1/4 BUFALINA","1","0.00","","","","","undefined","0.00","","668","","","","","","","","","","","N","","","","","","","","001 003","P","","000","1","CASSA","","","","","","","","","CONTO","","","CASSA","1","","","1","","000001","","","","","","","","","","","0.00","N","2021-09-20","2021-09-20","09:06:36","","1","0.0","0","0","0","0","0.0","0","0","0","0","0.0","0.00","","CASSA","","","N","null","1","0.0","ASPORTO00001CAS_20210920090601788","null"
"","CAS_20210920090601788","","","","","","0","","","","","","","","","","","","","","","","00","","21","1","","55","680/ND","CORPO","CANCELLATO CONTO INTERO 20-09-21 09:06","","","","ASPORTO00001CAS_20210920090601788","","","4","","","","=1/2 SALSICCIA FRIARIELLI","1","0.00","","","","","undefined","0.00","","668","","","","","","","","","","","N","","","","","","","","001 004","P","","000","1","CASSA","","","","","","","","","CONTO","","","CASSA","1","","","1","","000001","","","","","","","","0.00","0.00","0.00","0.00","N","2021-09-20","2021-09-20","09:06:39","","1","0.0","0","0","0","0","0.0","0","0","0","0","0.0","0.00","","CASSA","","","N","null","1","0.0","ASPORTO00001CAS_20210920090601788","null"
"","CAS_20210920090803287","","","","","","0","","","","","","","","","","","","","","","","","","","1","1","55","","CORPO","CANCELLATO DURANTE CREAZIONE COMANDA 20-09-21 09:09","","","","ASPORTO00001CAS_20210920090803287","","","1","","","","PIZZA UN METRO","1","0.00","","","","","undefined","0.00","","668","","","","","","","","","","","N","","","","","","","","001","P","","000","1","CASSA","","","","","","","","","CONTO","","","CASSA","1","","","4","","000001","","","","","","","","","","","0.00","N","2021-09-20","2021-09-20","09:08:03","","1","0.0","0","0","0","0","0.0","0","0","0","0","0.0","","","CASSA","","","N","null","1","0.0","ASPORTO00001CAS_20210920090803287","null"
"","CAS_20210920090803287","","","","","","0","","","","","","","","","","","","","","","","00","","8","1","","55","680/ND","CORPO","CANCELLATO DURANTE CREAZIONE COMANDA 20-09-21 09:09","","","","ASPORTO00001CAS_20210920090803287","","","2","","","","=1/4 4 STAGIONI","1","2.00","","","","","undefined","0.00","","668","","","","","","","","","","","N","","","","","","","","001 002","P","","000","1","CASSA","","","","","","","","","CONTO","","","CASSA","1","","","1","","000001","","","","","","","","","","","2.00","N","2021-09-20","2021-09-20","09:08:05","","1","1.63934426","0","0","0","0","0.36065574","0","0","0","0","2.0","0.00","","CASSA","","","N","null","1","2.0","ASPORTO00001CAS_20210920090803287","null"
"","CAS_20210920090803287","","","","","","0","","","","","","","","","","","","","","","","00","","8","1","","55","680/ND","CORPO","CANCELLATO DURANTE CREAZIONE COMANDA 20-09-21 09:09","","","","ASPORTO00001CAS_20210920090803287","","","3","","","","=1/4 4 STAGIONI","1","2.00","","","","","undefined","0.00","","668","","","","","","","","","","","N","","","","","","","","001 003","P","","000","1","CASSA","","","","","","","","","CONTO","","","CASSA","1","","","1","","000001","","","","","","","","","","","2.00","N","2021-09-20","2021-09-20","09:08:10","","1","1.63934426","0","0","0","0","0.36065574","0","0","0","0","2.0","0.00","","CASSA","","","N","null","1","2.0","ASPORTO00001CAS_20210920090803287","null"
"","CAS_20210920090803287","","","","","","0","","","","","","","","","","","","","","","","00","","19","1","","55","680/ND","CORPO","CANCELLATO DURANTE CREAZIONE COMANDA 20-09-21 09:09","","","","ASPORTO00001CAS_20210920090803287","","","4","","","","=1/2 BUFALINA","1","2.00","","","","","undefined","0.00","","668","","","","","","","","","","","N","","","","","","","","001 004","P","","000","1","CASSA","","","","","","","","","CONTO","","","CASSA","1","","","1","","000001","","","","","","","","","","","2.00","N","2021-09-20","2021-09-20","09:08:17","","1","1.63934426","0","0","0","0","0.36065574","0","0","0","0","2.0","0.00","","CASSA","","","N","null","1","2.0","ASPORTO00001CAS_20210920090803287","null"
"","CAS_20210920090803287","","","","","","0","","","","","","","","","","","","","","","","","","","1","1","55","","CORPO","CANCELLATO DURANTE CREAZIONE COMANDA 20-09-21 09:09","","","","ASPORTO00001CAS_20210920090803287","","","5","","","","PIZZA MEZZO METRO","1","0.00","","","","","undefined","0.00","","668","","","","","","","","","","","N","","","","","","","","005","P","","000","1","CASSA","","","","","","","","","CONTO","","","CASSA","1","","","2","","000001","","","","","","","","","","","0.00","N","2021-09-20","2021-09-20","09:08:30","","1","0.0","0","0","0","0","0.0","0","0","0","0","0.0","","","CASSA","","","N","null","1","0.0","ASPORTO00001CAS_20210920090803287","null"
"","CAS_20210920090803287","","","","","","0","","","","","","","","","","","","","","","","00","","19","1","","55","680/ND","CORPO","CANCELLATO DURANTE CREAZIONE COMANDA 20-09-21 09:09","","","","ASPORTO00001CAS_20210920090803287","","","6","","","","=1/2 BUFALINA","1","1.00","","","","","undefined","0.00","","668","","","","","","","","","","","N","","","","","","","","005 006","P","","000","1","CASSA","","","","","","","","","CONTO","","","CASSA","1","","","1","","000001","","","","","","","","","","","1.00","N","2021-09-20","2021-09-20","09:08:43","","1","0.81967213","0","0","0","0","0.18032787","0","0","0","0","1.0","0.00","","CASSA","","","N","null","1","1.0","ASPORTO00001CAS_20210920090803287","null"
"","CAS_20210920090803287","","","","","","0","","","","","","","","","","","","","","","","","","","1","1","55","","CORPO","CANCELLATO DURANTE CREAZIONE COMANDA 20-09-21 09:09","","","","ASPORTO00001CAS_20210920090803287","","","7","","","","PIZZA MEZZO METRO","1","0.00","","","","","undefined","0.00","","668","","","","","","","","","","","N","","","","","","","","007","P","","000","1","CASSA","","","","","","","","","CONTO","","","CASSA","1","","","2","","000001","","","","","","","","","","","0.00","N","2021-09-20","2021-09-20","09:08:58","","1","0.0","0","0","0","0","0.0","0","0","0","0","0.0","","","CASSA","","","N","null","1","0.0","ASPORTO00001CAS_20210920090803287","null"
"","CAS_20210920090803287","","","","","","0","","","","","","","","","","","","","","","","00","","10","1","","55","680/ND","CORPO","CANCELLATO DURANTE CREAZIONE COMANDA (2) 20-09-21 09:09","","","","ASPORTO00001CAS_20210920090803287","","","8","","","","=1/2 NAPOLI","1","0.00","","","","","undefined","0.00","","668","","","","","","","","","","","N","","","","","","","","007 008","P","","000","1","CASSA","","","","","","","","","CONTO","","","CASSA","1","","","1","","000001","","","","","","","","0.00","0.00","0.00","0.00","N","2021-09-20","2021-09-20","09:08:59","","1","0.0","0","0","0","0","0.0","0","0","0","0","0.0","0.00","","CASSA","","","N","null","1","0.0","ASPORTO00001CAS_20210920090803287","null"
"","CAS_20210920090803287","","","","","","0","","","","","","","","","","","","","","","","00","","19","1","","55","680/ND","CORPO","CANCELLATO DURANTE CREAZIONE COMANDA 20-09-21 09:09","","","","ASPORTO00001CAS_20210920090803287","","","9","","","","=1/2 BUFALINA","1","1.00","","","","","undefined","0.00","","668","","","","","","","","","","","N","","","","","","","","007 009","P","","000","1","CASSA","","","","","","","","","CONTO","","","CASSA","1","","","1","","000001","","","","","","","","","","","1.00","N","2021-09-20","2021-09-20","09:09:00","","1","0.81967213","0","0","0","0","0.18032787","0","0","0","0","1.0","0.00","","CASSA","","","N","null","1","1.0","ASPORTO00001CAS_20210920090803287","null"
"","CAS_20210920090803287","","","","","","0","","","","","","","","","","","","","","","","","","","1","","55","","CORPO","CANCELLATO DURANTE CREAZIONE COMANDA 20-09-21 09:09","","","","ASPORTO00001CAS_20210920090803287","","","10","","","","PIZZA MEZZO METRO","1","0.00","","","","","undefined","0.00","","668","","","","","","","","","","","N","","","","","","","","010","P","","000","1","CASSA","","","","","","","","","CONTO","","","CASSA","1","","","2","","000001","","","","","","","","","","","0.00","N","2021-09-20","2021-09-20","09:09:08","","1","0.0","0","0","0","0","0.0","0","0","0","0","0.0","","","CASSA","","","N","null","1","0.0","ASPORTO00001CAS_20210920090803287","null"
"","CAS_20210920090938839","","","","","","0","","","","","","","","","","","","","","","","00","","18","1","","55","680/ND","CORPO","CANCELLATO DURANTE CREAZIONE COMANDA 20-09-21 09:09","","","","ASPORTO00001CAS_20210920090938839","","","1","","","","DIAVOLA","1","8.00","","","","","10","0.00","","668","","","","","","","","","","","N","","","","","","","","001","P","","000","1","CASSA","","","","","","","","","CONTO","","","CASSA","1","","","1","","000001","","","","","","","","0.00","0.00","0.00","8.00","N","2021-09-20","2021-09-20","09:09:38","","1","0","7.27272727","0","0","0","0","0.72727273","0","0","0","8.0","0.00","","CASSA","","","N","null","2","8.0","ASPORTO00001CAS_20210920090938839","null"
"","CAS_20210920090938839","","","","","","0","","","","","","","","","","","","","","","","00","","18","1","","55","680/ND","CORPO","CANCELLATO DURANTE CREAZIONE COMANDA 20-09-21 09:09","","","","ASPORTO00001CAS_20210920090938839","","","2","","","","DIAVOLA","1","8.00","","","","","10","0.00","","668","","","","","","","","","","","N","","","","","","","","002","P","","000","1","CASSA","","","","","","","","","CONTO","","","CASSA","1","","","1","","000001","","","","","","","","0.00","0.00","0.00","8.00","N","2021-09-20","2021-09-20","09:09:38","","1","0","7.27272727","0","0","0","0","0.72727273","0","0","0","8.0","0.00","","CASSA","","","N","null","2","8.0","ASPORTO00001CAS_20210920090938839","null"
"","CAS_20210920090951997","","","","","","0","","","","","","","","","","","","","","","","00","","25","1","1","55","680/ND","CORPO","CANCELLATO DURANTE CREAZIONE COMANDA 20-09-21 09:09","","","","ASPORTO00001CAS_20210920090951997","","","1","","","","SOTTOBOSCO","1","8.50","","","","","10","0.00","","668","","","","","","","","","","","N","","","","","","","","001","P","","000","1","CASSA","","","","","","","","","CONTO","","","CASSA","1","","","1","","000001","","","","","","","","0.00","0.00","0.00","8.50","N","2021-09-20","2021-09-20","09:09:51","","1","0","7.72727273","0","0","0","0","0.77272727","0","0","0","8.5","0.00","","CASSA","","","N","null","2","8.5","ASPORTO00001CAS_20210920090951997","null"
"","CAS_20210920090951997","","","","","","0","","","","","","","","","","","","","","","","999","","52","1","","55","","CORPO","CANCELLATO DURANTE CREAZIONE COMANDA 20-09-21 09:09","","","","ASPORTO00001CAS_20210920090951997","","","2","","","","*POCO FUNGHI","1","0.00","","","","","10","0.00","","680","","","","","","","","","","","N","","","","","","","","001 002","P","","000","1","CASSA","","","","","","","","","CONTO","","","CASSA","1","","","1","","000001","","","","","","","","0.00","0.00","0.00","0.00","N","2021-09-20","2021-09-20","09:09:54","","1","0","0.0","0","0","0","0","0.0","0","0","0","0.0","0.00","","CASSA","","","N","null","2","0.0","ASPORTO00001CAS_20210920090951997","null"
"","CAS_20210920090958629","","","","","","0","","","","","","","","","","","","","","","","00","","18","1","1","55","680/ND","CORPO","CANCELLATO DURANTE CREAZIONE COMANDA 20-09-21 09:10","","","","ASPORTO00001CAS_20210920090958629","","","1","","","","DIAVOLA","1","8.00","","","","","10","0.00","","668","","","","","","","","","","","N","","","","","","","","001","P","","000","1","CASSA","","","","","","","","","CONTO","","","CASSA","1","","","1","","000001","","","","","","","","0.00","0.00","0.00","8.00","N","2021-09-20","2021-09-20","09:09:58","","1","0","7.27272727","0","0","0","0","0.72727273","0","0","0","8.0","0.00","","CASSA","","","N","null","2","8.0","ASPORTO00001CAS_20210920090958629","null"
"","CAS_20210920090958629","","","","","","0","","","","","","","","","","","","","","","","999","","60","1","","55","","CORPO","CANCELLATO DURANTE CREAZIONE COMANDA 20-09-21 09:10","","","","ASPORTO00001CAS_20210920090958629","","","2","","","","*IN COT. BUFALA","1","2.00","","","","","10","0.00","","680","","","","","","","","","","","N","","","","","","","","001 002","P","","000","1","CASSA","","","","","","","","","CONTO","","","CASSA","1","","","1","","000001","","","","","","","","0.00","0.00","0.00","2.00","N","2021-09-20","2021-09-20","09:10:01","","1","0","1.81818182","0","0","0","0","0.18181818","0","0","0","2.0","0.00","","CASSA","","","N","null","2","2.0","ASPORTO00001CAS_20210920090958629","null"
"","CAS_20210920091007693","","","","","","0","","","","","","","","","","","","","","","","00","","205","1","1","55","680/ND","CORPO","CANCELLATO DURANTE CREAZIONE COMANDA 20-09-21 09:10","","","","ASPORTO00001CAS_20210920091007693","","","1","","","","FRUTTI DI MARE ","1","10.00","","","","","10","0.00","","668","","","","","","","","","","","N","","","","","","","","001","P","","000","1","CASSA","","","","","","","","","CONTO","","","CASSA","1","","","1","","000001","","","","","","","","0.00","0.00","0.00","10.00","N","2021-09-20","2021-09-20","09:10:07","","1","0","9.09090909","0","0","0","0","0.90909091","0","0","0","10.0","0.00","","CASSA","","","N","null","2","10.0","ASPORTO00001CAS_20210920091007693","null"
"","CAS_20210920091007693","","","","","","0","","","","","","","","","","","","","","","","999","","60","1","","55","","CORPO","CANCELLATO DURANTE CREAZIONE COMANDA 20-09-21 09:10","","","","ASPORTO00001CAS_20210920091007693","","","2","","","","*FINE COT. BUFALA","1","2.00","","","","","10","0.00","","680","","","","","","","","","","","N","","","","","","","","001 002","P","","000","1","CASSA","","","","","","","","","CONTO","","","CASSA","1","","","1","","000001","","","","","","","","0.00","0.00","0.00","2.00","N","2021-09-20","2021-09-20","09:10:09","","1","0","1.81818182","0","0","0","0","0.18181818","0","0","0","2.0","0.00","","CASSA","","","N","null","2","2.0","ASPORTO00001CAS_20210920091007693","null"
"","CAS_20210920091051741","09:15","RITIRO","2","","","0","","","","","","","","","","","","","SUBITO","","","00","","27","1","1","55","680/ND","CORPO","RAPPORTOZ","","","","ASPORTO00001CAS_20210920091051741","","","1","","","","LA MIELA","1","8.50","","","","","10","0.00","","668","","","","","","","","","","","N","","","","","","","","001","P","","000","1","CASSA","","100","","","","","","LINDA TEST","CONTO","","","CASSA","1","","","1","","000001","","","","","","","","0.00","0.00","0.00","8.50","N","2021-09-20","2021-09-20","09:10:51","","1","0","7.72727273","0","0","0","0","0.77272727","0","0","0","8.5","0.00","","","","0","N","","2","8.5","ASPORTO00001CAS_20210920091051741","null"
"","CAS_20210920091051741","09:15","RITIRO","2","","","0","","","","","","","","","","","","","SUBITO","","","","","","1","","55","","CORPO","RAPPORTOZ","","","","ASPORTO00001CAS_20210920091051741","","","2","","","","(BABY)","1","-1.00","","","","","10","0.00","","V_666","","","","","","","","","","","N","","","","","","","","001 002","P","","000","1","CASSA","","100","","","","","","LINDA TEST","CONTO","","","CASSA","1","","","0","","000001","","","","","","","","","","","-1.00","N","2021-09-20","2021-09-20","09:11:02","","1","0","-0.90909091","0","0","0","0","-0.09090909","0","0","0","-1.0","","","","","0","N","","2","-1.0","ASPORTO00001CAS_20210920091051741","null"
"","CAS_20210920091051741","09:15","RITIRO","2","","","0","","","","","","","","","","","","","SUBITO","","","999","","86","1","","55","","CORPO","RAPPORTOZ","","","","ASPORTO00001CAS_20210920091051741","","","3","","","","*POCO MOZ. NO LATTOSIO","1","0.00","","","","","10","0.00","","680","","","","","","","","","","","N","","","","","","","","001 003","P","","000","1","CASSA","","100","","","","","","LINDA TEST","CONTO","","","CASSA","1","","","1","","000001","","","","","","","","0.00","0.00","0.00","0.00","N","2021-09-20","2021-09-20","09:11:06","","1","0","0.0","0","0","0","0","0.0","0","0","0","0.0","0.00","","","","0","N","","2","0.0","ASPORTO00001CAS_20210920091051741","null"
"","CAS_20210920091051741","09:15","RITIRO","2","","","0","","","","","","","","","","","","","SUBITO","","","00","","6","1","1","55","680/ND","CORPO","RAPPORTOZ","","","","ASPORTO00001CAS_20210920091051741","","","4","","","","COTTO","1","6.00","","","","","10","0.00","","668","","","","","","","","","","","N","","","","","","","","004","P","","000","1","CASSA","","100","","","","","","LINDA TEST","CONTO","","","CASSA","1","","","1","","000001","","","","","","","","0.00","0.00","0.00","6.00","N","2021-09-20","2021-09-20","09:11:09","","1","0","5.45454545","0","0","0","0","0.54545455","0","0","0","6.0","0.00","","","","0","N","","2","6.0","ASPORTO00001CAS_20210920091051741","null"
"","CAS_20210920091051741","09:15","RITIRO","2","","","0","","","","","","","","","","","","","SUBITO","","","999","","83","1","","55","","CORPO","RAPPORTOZ","","","","ASPORTO00001CAS_20210920091051741","","","5","","","","*IN COT. CALAMARI","1","2.00","","","","","10","0.00","","680","","","","","","","","","","","N","","","","","","","","004 005","P","","000","1","CASSA","","100","","","","","","LINDA TEST","CONTO","","","CASSA","1","","","1","","000001","","","","","","","","0.00","0.00","0.00","2.00","N","2021-09-20","2021-09-20","09:11:12","","1","0","1.81818182","0","0","0","0","0.18181818","0","0","0","2.0","0.00","","","","0","N","","2","2.0","ASPORTO00001CAS_20210920091051741","null"
"","CAS_20210920091051741","09:15","RITIRO","2","","","0","","","","","","","","","","","","","SUBITO","","","999","","86","1","","55","","CORPO","RAPPORTOZ","","","","ASPORTO00001CAS_20210920091051741","","","6","","","","*FINE COT. MOZ. NO LATTOSIO","1","1.50","","","","","10","0.00","","680","","","","","","","","","","","N","","","","","","","","004 006","P","","000","1","CASSA","","100","","","","","","LINDA TEST","CONTO","","","CASSA","1","","","1","","000001","","","","","","","","0.00","0.00","0.00","1.50","N","2021-09-20","2021-09-20","09:11:18","","1","0","1.36363636","0","0","0","0","0.13636364","0","0","0","1.5","0.00","","","","0","N","","2","1.5","ASPORTO00001CAS_20210920091051741","null"
"","CAS_20210920091051741","09:15","RITIRO","2","","","0","","","","","","","","","","","","","SUBITO","","","999","","49","1","","55","","CORPO","RAPPORTOZ","","","","ASPORTO00001CAS_20210920091051741","","","7","","","","+PROSCIUTTO COTTO","1","1.50","","","","","10","0.00","","680","","","","","","","","","","","N","","","","","","","","004 007","P","","000","1","CASSA","","100","","","","","","LINDA TEST","CONTO","","","CASSA","1","","","1","","000001","","","","","","","","0.00","0.00","0.00","1.50","N","2021-09-20","2021-09-20","09:11:25","","1","0","1.36363636","0","0","0","0","0.13636364","0","0","0","1.5","0.00","","","","0","N","","2","1.5","ASPORTO00001CAS_20210920091051741","null"
"","CAS_20210920091051741","09:15","RITIRO","2","","","0","","","","","","","","","","","","","SUBITO","","","999","","86","1","","55","","CORPO","RAPPORTOZ","","","","ASPORTO00001CAS_20210920091051741","","","8","","","","-MOZ. NO LATTOSIO","1","0.00","","","","","10","0.00","","680","","","","","","","","","","","N","","","","","","","","004 008","P","","000","1","CASSA","","100","","","","","","LINDA TEST","CONTO","","","CASSA","1","","","1","","000001","","","","","","","","0.00","0.00","0.00","0.00","N","2021-09-20","2021-09-20","09:11:29","","1","0","0.0","0","0","0","0","0.0","0","0","0","0.0","0.00","","","","0","N","","2","0.0","ASPORTO00001CAS_20210920091051741","null"
"","CAS_2021092009155797","","","","","","0","","","","","","","","","","","","","","","","00","","12","1","1","55","680/ND","CORPO","RAPPORTOZ","","","","ASPORTO00001CAS_2021092009155797","","","1","","","","SICILIANA","1","7.50","","","","","10","0.00","","668","","","","","","","","","","","N","","","","","","","","001","P","","000","1","CASSA","","","","","","","","LINDA C","CONTO","","","CASSA","1","","","1","","000001","","","","","","","","0.00","0.00","0.00","7.50","N","2021-09-20","2021-09-20","09:15:57","","1","0","6.81818182","0","0","0","0","0.68181818","0","0","0","7.5","0.00","","","","","N","null","2","7.5","ASPORTO00001CAS_2021092009155797","null"
"","CAS_2021092009155797","","","","","","0","","","","","","","","","","","","","","","","999","","47","1","","55","","CORPO","RAPPORTOZ","","","","ASPORTO00001CAS_2021092009155797","","","2","","","","-PROSCIUTTO CRUDO","1","0.00","","","","","10","0.00","","680","","","","","","","","","","","N","","","","","","","","001 002","P","","000","1","CASSA","","","","","","","","LINDA C","CONTO","","","CASSA","1","","","1","","000001","","","","","","","","0.00","0.00","0.00","0.00","N","2021-09-20","2021-09-20","09:15:58","","1","0","0.0","0","0","0","0","0.0","0","0","0","0.0","0.00","","","","","N","null","2","0.0","ASPORTO00001CAS_2021092009155797","null"
"","CAS_2021092009155797","","","","","","0","","","","","","","","","","","","","","","","05","","229","1","","55","ND/ND","CORPO","RAPPORTOZ","","","","ASPORTO00001CAS_2021092009155797","","","3","","","","CALZONE CLASSICO","1","6.00","","","","","10","0.00","","669","","","","","","","","","","","N","","","","","","","","003","P","","000","1","CASSA","","","","","","","","LINDA C","CONTO","","","CASSA","1","","","1","","000001","","","","","","","","0.00","0.00","0.00","6.00","N","2021-09-20","2021-09-20","09:16:01","","1","4.91803279","0","0","0","0","1.08196721","0","0","0","0","6.0","0.00","","","","","N","null","1","6.0","ASPORTO00001CAS_2021092009155797","null"
"","CAS_2021092009155797","","","","","","0","","","","","","","","","","","","","","","","10","","2","1","","57","ND/ND","CORPO","RAPPORTOZ","","","","ASPORTO00001CAS_2021092009155797","","","4","","","","SUPLIE POM BASILICO","1","3.00","","","","","10","0.00","","667","","","","","","","","","","","N","","","","","","","","004","P5","","000","1","CASSA","","","","","","","","LINDA C","CONTO","","","CASSA","1","","","1","","000001","","","","","","55","","0.00","0.00","0.00","3.00","N","2021-09-20","2021-09-20","09:16:03","","1","2.45901639","0","0","0","0","0.54098361","0","0","0","0","3.0","0.00","","","","","N","null","1","3.0","ASPORTO00001CAS_2021092009155797","null"
"","CAS_20210920091813914","09:18","RITIRO","1","","","0","","","","","","","","","","","","","SUBITO","conto","","00","","21","1","","55","680/ND","CORPO","FORNO","","","","ASPORTO00001CAS_20210920091813914","","","1","","","","SALSICCIA FRIARIELLI","1","8.00","0.00","N","0","","10","0.00","","668","","","","","","","","","","","S","20-09-21","09:18","","","","","","001","P","","000","1","CASSA","","106","","","","","","LINDA C","CONTO","","","CASSA","1","","","1","","000001","","","","","","","","0.00","0.00","0.00","8.00","N","2021-09-20","2021-09-20","09:18:13","","1","0","7.27272727","0","0","0","0","0.72727273","0","0","0","8.0","0.00","","","","0","N","","2","8.0","ASPORTO00001CAS_20210920091813914","null"
"","CAS_20210920091813914","09:18","RITIRO","1","","","0","","","","","","","","","","","","","SUBITO","conto","","00","","18","1","","55","680/ND","CORPO","FORNO","","","","ASPORTO00001CAS_20210920091813914","","","2","","","","DIAVOLA","1","8.00","0.00","N","0","","10","0.00","","668","","","","","","","","","","","S","20-09-21","09:18","","","","","","002","P","","000","1","CASSA","","106","","","","","","LINDA C","CONTO","","","CASSA","1","","","1","","000001","","","","","","","","0.00","0.00","0.00","8.00","N","2021-09-20","2021-09-20","09:18:14","","1","0","7.27272727","0","0","0","0","0.72727273","0","0","0","8.0","0.00","","","","0","N","","2","8.0","ASPORTO00001CAS_20210920091813914","null"
"","CAS_20210920092157776","13:00","DOMICILIO","1","0.25000000","","0","","","","","","","","","","","","","","","","00","","205","1","","55","680/ND","CORPO","FORNO","","","","ASPORTO00001CAS_20210920092157776","","","1","","","","FRUTTI DI MARE ","1","10.00","","","","","10","0.00","","668","","","","","","","","","","","S","20-09-21","09:22","","","","","","001","P","","000","1","CASSA","","106","","","","","","LINDA C","CONTO","","","CASSA","1","","","1","","000001","","","","","","","","0.00","0.00","0.00","10.00","N","2021-09-20","2021-09-20","09:21:57","","1","0","0","0","0","0","0","0","0","0","0","0","0.00","","","","0","N","","2","0.00","",""
"","CAS_20210920092157776","13:00","DOMICILIO","1","0.25000000","","0","","","","","","","","","","","","","","","","00","","14","1","","55","680/ND","CORPO","FORNO","","","","ASPORTO00001CAS_20210920092157776","","","2","","","","CAPRICCIOSA","1","7.00","","","","","10","0.00","","668","","","","","","","","","","","S","20-09-21","09:22","","","","","","002","P","","000","1","CASSA","","106","","","","","","LINDA C","CONTO","","","CASSA","1","","","1","","000001","","","","","","","","","","","7.00","N","2021-09-20","2021-09-20","09:21:58","","1","0","0","0","0","0","0","0","0","0","0","0","0.00","","","","0","N","","2","0.00","",""
"","CAS_20210920092157776","13:00","DOMICILIO","1","0.25000000","","0","","","","","","","","","","","","","","","","00","","8","1","","55","680/ND","CORPO","FORNO","","","","ASPORTO00001CAS_20210920092157776","","","3","","","","4 STAGIONI","1","7.50","","","","","10","0.00","","668","","","","","","","","","","","S","20-09-21","09:22","","","","","","003","P","","000","1","CASSA","","106","","","","","","LINDA C","CONTO","","","CASSA","1","","","1","","000001","","","","","","","","","","","7.50","N","2021-09-20","2021-09-20","09:21:59","","1","0","0","0","0","0","0","0","0","0","0","0","0.00","","","","0","N","","2","0.00","",""
"","CAS_20210920092157776","13:00","DOMICILIO","1","0.25000000","","0","","","","","","","","","","","","","","","","00","","205","1","","55","680/ND","CORPO","FORNO","","","","ASPORTO00001CAS_20210920092157776","","","4","","","","FRUTTI DI MARE ","1","10.00","","","","","10","0.00","","668","","","","","","","","","","","S","20-09-21","09:22","","","","","","004","P","","000","1","CASSA","","106","","","","","","LINDA C","CONTO","","","CASSA","1","","","1","","000001","","","","","","","","0.00","0.00","0.00","10.00","N","2021-09-20","2021-09-20","09:21:59","","1","0","0","0","0","0","0","0","0","0","0","0","0.00","","","","0","N","","2","0.00","",""
"","CAS_20210920092428600","13:00","RITIRO","1","","","0","","","","","","","","","","","","","","","","00","","13","1","","55","680/ND","CORPO","CANCELLATO DURANTE CREAZIONE COMANDA 20-09-21 09:25","","","","ASPORTO00001CAS_20210920092428600","","","1","","","","TONNO CIPOLLA","1","6.50","","","","","10","0.00","","668","","","","","","","","","","","N","","","","","","","","001","P","","000","1","CASSA","","3000001","","","","","","DAVIDE CAVALLINI","CONTO","","","CASSA","1","","","1","","000001","","","","","","","","0.00","0.00","0.00","6.50","N","2021-09-20","2021-09-20","09:24:28","","1","0","0","0","0","0","0","0","0","0","0","0","0.00","","CASSA","","0","N","","2","0.00","",""
"","CAS_20210920092428600","13:00","RITIRO","2","","","0","","","","","","","","","","","","","","","","00","","12","1","","55","680/ND","CORPO","FORNO","","","","ASPORTO00001CAS_20210920092428600","","","2","","","","SICILIANA","1","7.50","","","","","10","0.00","","668","","","","","","","","","","","N","","","","","","","","002","P","","000","1","CASSA","","3000001","","","","","","DAVIDE CAVALLINI","CONTO","","","CASSA","1","","","1","","000001","","","","","","","","0.00","0.00","0.00","7.50","N","2021-09-20","2021-09-20","09:24:28","","1","0","0","0","0","0","0","0","0","0","0","0","0.00","","","","0","N","","2","0.00","",""
"","CAS_20210920092428600","13:00","RITIRO","2","","","0","","","","","","","","","","","","","","","","00","","12","1","","55","680/ND","CORPO","FORNO","","","","ASPORTO00001CAS_20210920092428600","","","3","","","","SICILIANA","1","7.50","","","","","10","0.00","","668","","","","","","","","","","","N","","","","","","","","003","P","","000","1","CASSA","","3000001","","","","","","DAVIDE CAVALLINI","CONTO","","","CASSA","1","","","1","","000001","","","","","","","","0.00","0.00","0.00","7.50","N","2021-09-20","2021-09-20","09:24:29","","1","0","0","0","0","0","0","0","0","0","0","0","0.00","","","","0","N","","2","0.00","",""
"","CAS_20210920092428600","13:00","RITIRO","1","","","0","","","","","","","","","","","","","","","","00","","12","1","","55","680/ND","CORPO","CANCELLATO DURANTE CREAZIONE COMANDA 20-09-21 09:25","","","","ASPORTO00001CAS_20210920092428600","","","4","","","","SICILIANA","1","7.50","","","","","10","0.00","","668","","","","","","","","","","","N","","","","","","","","004","P","","000","1","CASSA","","3000001","","","","","","DAVIDE CAVALLINI","CONTO","","","CASSA","1","","","1","","000001","","","","","","","","0.00","0.00","0.00","7.50","N","2021-09-20","2021-09-20","09:24:29","","1","0","0","0","0","0","0","0","0","0","0","0","0.00","","CASSA","","0","N","","2","0.00","",""
"","CAS_20210920092446384","13:00","RITIRO","","","","0","","","","","","","","","","","","","","","","00","","21","1","","55","680/ND","CORPO","FORNO","","","","ASPORTO00001CAS_20210920092446384","","","1","","","","SALSICCIA FRIARIELLI","1","8.00","","","","","10","0.00","","668","","","","","","","","","","","N","","","","","","","","001","P","","000","1","CASSA","","P1-000-01","","","","","","P1-000-01","CONTO","","","CASSA","1","","","1","","000001","","","","","","","","0.00","0.00","0.00","8.00","N","2021-09-20","2021-09-20","09:24:46","","1","0","0","0","0","0","0","0","0","0","0","0","0.00","","","","0","N","","2","0.00","",""
"","CAS_20210920092446384","13:00","RITIRO","1","","","0","","","","","","","","","","","","","","","","00","","14","1","","55","680/ND","CORPO","CANCELLATO DURANTE CREAZIONE COMANDA 20-09-21 09:25","","","","ASPORTO00001CAS_20210920092446384","","","2","","","","CAPRICCIOSA","1","7.00","","","","","10","0.00","","668","","","","","","","","","","","N","","","","","","","","002","P","","000","1","CASSA","","P1-000-01","","","","","","P1-000-01","CONTO","","","CASSA","1","","","1","","000001","","","","","","","","","","","7.00","N","2021-09-20","2021-09-20","09:24:46","","1","0","0","0","0","0","0","0","0","0","0","0","0.00","","CASSA","","0","N","","2","0.00","",""
"","CAS_20210920092446384","13:00","RITIRO","1","","","0","","","","","","","","","","","","","","","","00","","8","1","","55","680/ND","CORPO","CANCELLATO DURANTE CREAZIONE COMANDA 20-09-21 09:25","","","","ASPORTO00001CAS_20210920092446384","","","3","","","","4 STAGIONI","1","7.50","","","","","10","0.00","","668","","","","","","","","","","","N","","","","","","","","003","P","","000","1","CASSA","","P1-000-01","","","","","","P1-000-01","CONTO","","","CASSA","1","","","1","","000001","","","","","","","","","","","7.50","N","2021-09-20","2021-09-20","09:24:47","","1","0","0","0","0","0","0","0","0","0","0","0","0.00","","CASSA","","0","N","","2","0.00","",""
"","CAS_20210920092558593","","","","","","0","","","","","","","","","","","","","","","","05","","229","1","","55","ND/ND","CORPO","CANCELLATO DURANTE CREAZIONE COMANDA 20-09-21 09:26","","","","ASPORTO00001CAS_20210920092558593","","","1","","","","CALZONE CLASSICO","1","6.00","","","","","10","0.00","","669","","","","","","","","","","","N","","","","","","","","001","P","","000","1","CASSA","","","","","","","","","CONTO","","","CASSA","1","","","1","","000001","","","","","","","","0.00","0.00","0.00","6.00","N","2021-09-20","2021-09-20","09:25:58","","1","0","0","0","0","0","0","0","0","0","0","0","0.00","","CASSA","","","N","","1","0.00","",""
"","CAS_20210920092558593","","","","","","0","","","","","","","","","","","","","","","","13","","107","1","","58","681/ND","CORPO","CANCELLATO DURANTE CREAZIONE COMANDA 20-09-21 09:26","","","","ASPORTO00001CAS_20210920092558593","","","2","","","","COCA COLA 1LT","1","4.00","","","","","10","0.00","","673","","","","","","","","","","","N","","","","","","","","002","B","","000","1","CASSA","","","","","","","","","CONTO","","","CASSA","1","","","1","","000001","","","","","","","","0.00","0.00","0.00","4.00","N","2021-09-20","2021-09-20","09:26:01","","1","0","0","0","0","0","0","0","0","0","0","0","0.00","","CASSA","","","N","","1","0.00","",""