"","361","CAS_20210901094936639","1","SCONTRINO","22.00","0.00","0.00","22.00","CASSA","ASPORTO00001CAS_20210901094936639","01-09-21","09:50:00","PIZZERIA QUEEN","310","null","null","null","0.00","N","10","","0","0","0","0","","0","0","","0","0","","0","0","","0","0","0.00","CASSA","3","0.00","2021-09-01","09:49:37","2021-09-01","2.00","0.00","0.00","0.00","0.00","22.00","0.00","0.00","0.00","0.00","0.00","0.00","4","1","20.00","0.00","0.00","0.00","0.00","10.00","0","0","0","0","0.00","0.00","","0322","null","1","2","3","4","5","0","0","0","null"
"","362","CAS_20210901095006351","1","SCONTRINO","33.00","0.00","0.00","33.00","CASSA","ASPORTO00001CAS_20210901095006351","01-09-21","09:50:18","PIZZERIA QUEEN","311","null","null","null","0.00","N","10","","0","0","0","0","","0","0","","0","0","","0","0","","0","0","0.00","CASSA","3","0.00","2021-09-01","09:50:07","2021-09-01","3.00","0.00","0.00","0.00","0.00","33.00","0.00","0.00","0.00","0.00","0.00","0.00","5","1","30.00","0.00","0.00","0.00","0.00","10.00","0","0","0","0","0.00","0.00","","0322","null","1","2","3","4","5","0","0","0","null"
"","363","CAS_20210901100357636","1","SCONTRINO","15.00","0.00","0.00","15.00","CASSA","ASPORTO00001CAS_20210901100357636","01-09-21","10:04:35","PIZZERIA QUEEN","313","null","null","null","0.00","N","10","","0","0","0","0","","0","0","","0","0","","0","0","","0","0","0.00","CASSA","3","0.00","2021-09-01","10:03:59","2021-09-01","1.36","0.00","0.00","0.00","0.00","15.00","0.00","0.00","0.00","0.00","0.00","0.00","2","1","13.64","0.00","0.00","0.00","0.00","10.00","0","0","0","0","0.00","0.00","","0322","null","1","2","3","4","5","0","0","0","null"
"","364","CAS_20210901100548957","1","SCONTRINO","16.00","0.00","0.00","16.00","CASSA","ASPORTO00001CAS_20210901100548957","01-09-21","10:06:17","PIZZERIA QUEEN","314","null","null","null","0.00","N","10","","0","0","0","0","","0","0","","0","0","","0","0","","0","0","0.00","CASSA","3","0.00","2021-09-01","10:05:49","2021-09-01","1.45","0.00","0.00","0.00","0.00","16.00","0.00","0.00","0.00","0.00","0.00","0.00","2","1","14.55","0.00","0.00","0.00","0.00","10.00","0","0","0","0","0.00","0.00","","0322","null","1","2","3","4","5","0","0","0","null"
"","365","CAS_20210901100656364","1","SCONTRINO","97.00","0.00","0.00","97.00","CASSA","ASPORTO00001CAS_20210901100656364","01-09-21","10:07:23","PIZZERIA QUEEN","315","null","null","null","0.00","N","10","","0","0","0","0","","0","0","","0","0","","0","0","","0","0","0.00","CASSA","3","0.00","2021-09-01","10:06:59","2021-09-01","8.82","0.00","0.00","0.00","0.00","97.00","0.00","0.00","0.00","0.00","0.00","0.00","13","1","88.18","0.00","0.00","0.00","0.00","10.00","0","0","0","0","0.00","0.00","","0322","null","1","2","3","4","5","0","0","0","null"
"","366","CAS_20210901174014162","1","SCONTRINO","34.00","0.00","0.00","34.00","CASSA","ASPORTO00001CAS_20210901174014162","01-09-21","17:40:37","PIZZERIA QUEEN","2","null","null","null","0.00","N","10","","0","0","0","0","","0","0","","0","0","","0","0","","0","0","0.00","CASSA","3","0.00","2021-09-01","17:40:15","2021-09-01","6.13","0.00","0.00","0.00","0.00","34.00","0.00","0.00","0.00","0.00","0.00","0.00","4","1","27.87","0.00","0.00","0.00","0.00","22.00","0","0","0","0","0.00","0.00","","0323","null","1","2","3","4","5","0","0","0","null"
"","367","CAS_20210901174108170","1","SCONTRINO","17.00","0.00","0.00","17.00","CASSA","ASPORTO00001CAS_20210901174108170","01-09-21","17:42:31","PIZZERIA QUEEN","3","null","null","null","0.00","N","10","","0","0","0","0","","0","0","","0","0","","0","0","","0","0","0.00","CASSA","3","0.00","2021-09-01","17:41:08","2021-09-01","3.07","0.00","0.00","0.00","0.00","17.00","0.00","0.00","0.00","0.00","0.00","0.00","3","1","13.93","0.00","0.00","0.00","0.00","22.00","0","0","0","0","0.00","0.00","","0323","null","1","2","3","4","5","0","0","0","null"
"","368","CAS_20210901174512698","1","SCONTRINO","20.50","0.00","0.00","20.50","CASSA","ASPORTO00001CAS_20210901174512698","01-09-21","17:45:34","PIZZERIA QUEEN","4","null","null","null","0.00","N","10","","0","0","0","0","","0","0","","0","0","","0","0","","0","0","0.00","CASSA","3","0.00","2021-09-01","17:45:13","2021-09-01","3.70","0.00","0.00","0.00","0.00","20.50","0.00","0.00","0.00","0.00","0.00","0.00","3","1","16.80","0.00","0.00","0.00","0.00","22.00","0","0","0","0","0.00","0.00","","0323","null","1","2","3","4","5","0","0","0","null"
"","369","CAS_20210901174512698","1","SCONTRINO","20.50","0.00","0.00","20.50","CASSA","ASPORTO00001CAS_20210901174512698","01-09-21","17:45:58","PIZZERIA QUEEN","5","null","null","null","0.00","N","10","","0","0","0","0","","0","0","","0","0","","0","0","","0","0","0.00","CASSA","3","0.00","2021-09-01","17:45:13","2021-09-01","0.00","0.00","0.00","0.00","0.00","0.00","0.00","0.00","0.00","0.00","0.00","0.00","3","1","0.00","0.00","0.00","0.00","0.00","22.00","0","0","0","0","0.00","0.00","","0323","null","1","2","3","4","5","0","0","0","null"
"","370","CAS_20210901174632865","1","SCONTRINO","10.00","0.00","0.00","10.00","CASSA","ASPORTO00001CAS_20210901174632865","01-09-21","17:46:46","PIZZERIA QUEEN","6","null","null","null","0.00","N","10","","0","0","0","0","","0","0","","0","0","","0","0","","0","0","0.00","CASSA","3","0.00","2021-09-01","17:46:32","2021-09-01","1.80","0.00","0.00","0.00","0.00","10.00","0.00","0.00","0.00","0.00","0.00","0.00","1","1","8.20","0.00","0.00","0.00","0.00","22.00","0","0","0","0","0.00","0.00","","0323","null","1","2","3","4","5","0","0","0","null"
"","371","CAS_20210901174632865","1","SCONTRINO","10.00","0.00","0.00","10.00","CASSA","ASPORTO00001CAS_20210901174632865","01-09-21","17:47:04","PIZZERIA QUEEN","7","null","null","null","0.00","N","10","","0","0","0","0","","0","0","","0","0","","0","0","","0","0","0.00","CASSA","3","0.00","2021-09-01","17:46:32","2021-09-01","0.00","0.00","0.00","0.00","0.00","0.00","0.00","0.00","0.00","0.00","0.00","0.00","1","1","0.00","0.00","0.00","0.00","0.00","22.00","0","0","0","0","0.00","0.00","","0323","null","1","2","3","4","5","0","0","0","null"
"","372","CAS_20210901175101375","1","SCONTRINO","7.50","0.00","0.00","7.50","CASSA","ASPORTO00001CAS_20210901175101375","01-09-21","17:51:26","PIZZERIA QUEEN","8","null","null","null","0.00","N","10","","0","0","0","0","","0","0","","0","0","","0","0","","0","0","0.00","CASSA","3","0.00","2021-09-01","17:51:04","2021-09-01","1.35","0.00","0.00","0.00","0.00","7.50","0.00","0.00","0.00","0.00","0.00","0.00","3","1","6.15","0.00","0.00","0.00","0.00","22.00","0","0","0","0","0.00","0.00","","0323","null","1","2","3","4","5","0","0","0","null"
"","373","CAS_20210901175101375","1","SCONTRINO","7.50","0.00","0.00","7.50","CASSA","ASPORTO00001CAS_20210901175101375","01-09-21","17:51:33","PIZZERIA QUEEN","9","null","null","null","0.00","N","10","","0","0","0","0","","0","0","","0","0","","0","0","","0","0","0.00","CASSA","3","0.00","2021-09-01","17:51:04","2021-09-01","0.00","0.00","0.00","0.00","0.00","0.00","0.00","0.00","0.00","0.00","0.00","0.00","3","1","0.00","0.00","0.00","0.00","0.00","22.00","0","0","0","0","0.00","0.00","","0323","null","1","2","3","4","5","0","0","0","null"
"","374","CAS_20210901175232538","1","SCONTRINO","12.50","0.00","0.00","12.50","CASSA","ASPORTO00001CAS_20210901175232538","01-09-21","17:52:51","PIZZERIA QUEEN","10","null","null","null","0.00","N","10","","0","0","0","0","","0","0","","0","0","","0","0","","0","0","0.00","CASSA","3","0.00","2021-09-01","17:52:35","2021-09-01","2.25","0.00","0.00","0.00","0.00","12.50","0.00","0.00","0.00","0.00","0.00","0.00","4","1","10.25","0.00","0.00","0.00","0.00","22.00","0","0","0","0","0.00","0.00","","0323","null","1","2","3","4","5","0","0","0","null"
"","375","CAS_20210901175232538","1","SCONTRINO","12.50","0.00","0.00","12.50","CASSA","ASPORTO00001CAS_20210901175232538","01-09-21","17:53:18","PIZZERIA QUEEN","11","null","null","null","0.00","N","10","","0","0","0","0","","0","0","","0","0","","0","0","","0","0","0.00","CASSA","3","0.00","2021-09-01","17:52:35","2021-09-01","0.00","0.00","0.00","0.00","0.00","0.00","0.00","0.00","0.00","0.00","0.00","0.00","4","1","0.00","0.00","0.00","0.00","0.00","22.00","0","0","0","0","0.00","0.00","","0323","null","1","2","3","4","5","0","0","0","null"
"","376","CAS_20210901181147998","1","SCONTRINO","10.50","0.00","0.00","10.50","CASSA","ASPORTO00001CAS_20210901181147998","01-09-21","18:12:03","PIZZERIA QUEEN","12","null","null","null","0.00","N","10","","0","0","0","0","","0","0","","0","0","","0","0","","0","0","0.00","CASSA","3","0.00","2021-09-01","18:11:49","2021-09-01","1.89","0.00","0.00","0.00","0.00","10.50","0.00","0.00","0.00","0.00","0.00","0.00","3","1","8.61","0.00","0.00","0.00","0.00","22.00","0","0","0","0","0.00","0.00","","0323","null","1","2","3","4","5","0","0","0","null"
"","377","CAS_20210901181147998","1","SCONTRINO","10.50","0.00","0.00","10.50","CASSA","ASPORTO00001CAS_20210901181147998","01-09-21","18:12:21","PIZZERIA QUEEN","13","null","null","null","0.00","N","10","","0","0","0","0","","0","0","","0","0","","0","0","","0","0","0.00","CASSA","3","0.00","2021-09-01","18:11:49","2021-09-01","0.00","0.00","0.00","0.00","0.00","0.00","0.00","0.00","0.00","0.00","0.00","0.00","3","1","0.00","0.00","0.00","0.00","0.00","22.00","0","0","0","0","0.00","0.00","","0323","null","1","2","3","4","5","0","0","0","null"
"","378","CAS_2021090118141786","1","SCONTRINO","11.00","0.00","0.00","11.00","CASSA","ASPORTO00001CAS_2021090118141786","01-09-21","18:16:06","PIZZERIA QUEEN","14","null","null","null","0.00","N","10","","0","0","0","0","","0","0","","0","0","","0","0","","0","0","0.00","CASSA","3","0.00","2021-09-01","18:14:22","2021-09-01","1.98","0.00","0.00","0.00","0.00","11.00","0.00","0.00","0.00","0.00","0.00","0.00","2","1","9.02","0.00","0.00","0.00","0.00","22.00","0","0","0","0","0.00","0.00","","0323","null","1","2","3","4","5","0","0","0","null"
"","379","CAS_20210902091557162","1","SCONTRINO","7.00","0.00","0.00","7.00","CASSA","ASPORTO00001CAS_20210902091557162","02-09-21","09:16:31","PIZZERIA QUEEN","15","null","null","null","0.00","N","10","","0","0","0","0","","0","0","","0","0","","0","0","","0","0","0.00","CASSA","4","0.00","2021-09-02","09:16:12","2021-09-02","1.26","0.00","0.00","0.00","0.00","7.00","0.00","0.00","0.00","0.00","0.00","0.00","2","1","5.74","0.00","0.00","0.00","0.00","22.00","0","0","0","0","0.00","0.00","","0323","null","1","2","3","4","5","0","0","0","null"
"","380","CAS_20210902091730253","1","SCONTRINO","25.00","0.00","0.00","25.00","CASSA","ASPORTO00001CAS_20210902091730253","02-09-21","09:18:01","PIZZERIA QUEEN","16","null","null","null","0.00","N","10","","0","0","0","0","","0","0","","0","0","","0","0","","0","0","0.00","CASSA","4","0.00","2021-09-02","09:17:43","2021-09-02","4.51","0.00","0.00","0.00","0.00","25.00","0.00","0.00","0.00","0.00","0.00","0.00","6","1","20.49","0.00","0.00","0.00","0.00","22.00","0","0","0","0","0.00","0.00","","0323","null","1","2","3","4","5","0","0","0","null"
"","381","CAS_20210902091730253","1","SCONTRINO","25.00","0.00","0.00","25.00","CASSA","ASPORTO00001CAS_20210902091730253","02-09-21","09:18:16","PIZZERIA QUEEN","17","null","null","null","0.00","N","10","","0","0","0","0","","0","0","","0","0","","0","0","","0","0","0.00","CASSA","4","0.00","2021-09-02","09:17:43","2021-09-02","0.00","0.00","0.00","0.00","0.00","0.00","0.00","0.00","0.00","0.00","0.00","0.00","6","1","0.00","0.00","0.00","0.00","0.00","22.00","0","0","0","0","0.00","0.00","","0323","null","1","2","3","4","5","0","0","0","null"
"","382","CAS_20210902092029634","1","SCONTRINO","57.00","0.00","0.00","57.00","CASSA","ASPORTO00001CAS_20210902092029634","02-09-21","09:21:04","PIZZERIA QUEEN","18","null","null","null","0.00","N","10","","0","0","0","0","","0","0","","0","0","","0","0","","0","0","0.00","CASSA","4","0.00","2021-09-02","09:20:38","2021-09-02","10.28","0.00","0.00","0.00","0.00","57.00","0.00","0.00","0.00","0.00","0.00","0.00","8","1","46.72","0.00","0.00","0.00","0.00","22.00","0","0","0","0","0.00","0.00","","0323","null","1","2","3","4","5","0","0","0","null"
"","383","CAS_20210902092656971","1","SCONTRINO","35.00","0.00","0.00","35.00","CASSA","ASPORTO00001CAS_20210902092656971","02-09-21","09:27:29","PIZZERIA QUEEN","19","null","null","null","0.00","N","10","","0","0","0","0","","0","0","","0","0","","0","0","","0","0","0.00","CASSA","4","0.00","2021-09-02","09:27:05","2021-09-02","6.31","0.00","0.00","0.00","0.00","35.00","0.00","0.00","0.00","0.00","0.00","0.00","10","1","28.69","0.00","0.00","0.00","0.00","22.00","0","0","0","0","0.00","0.00","","0323","null","1","2","3","4","5","0","0","0","null"
"","384","CAS_20210902093713240","1","SCONTRINO","35.00","0.00","0.00","35.00","CASSA","ASPORTO00001CAS_20210902093713240","02-09-21","09:37:37","PIZZERIA QUEEN","20","null","null","null","0.00","N","10","","0","0","0","0","","0","0","","0","0","","0","0","","0","0","0.00","CASSA","4","0.00","2021-09-02","09:37:19","2021-09-02","6.31","0.00","0.00","0.00","0.00","35.00","0.00","0.00","0.00","0.00","0.00","0.00","10","1","28.69","0.00","0.00","0.00","0.00","22.00","0","0","0","0","0.00","0.00","","0323","null","1","2","3","4","5","0","0","0","null"
"","385","CAS_20210902093905983","1","SCONTRINO","11.00","0.00","0.00","11.00","CASSA","ASPORTO00001CAS_20210902093905983","02-09-21","09:39:34","PIZZERIA QUEEN","21","null","null","null","0.00","N","10","","0","0","0","0","","0","0","","0","0","","0","0","","0","0","0.00","CASSA","4","0.00","2021-09-02","09:39:10","2021-09-02","1.98","0.00","0.00","0.00","0.00","11.00","0.00","0.00","0.00","0.00","0.00","0.00","2","1","9.02","0.00","0.00","0.00","0.00","22.00","0","0","0","0","0.00","0.00","","0323","null","1","2","3","4","5","0","0","0","null"
"","386","CAS_20210902113624639","1","SCONTRINO","3.50","0.00","0.00","3.50","CASSA","ASPORTO00001CAS_20210902113624639","02-09-21","11:39:03","PIZZERIA QUEEN","33","null","null","null","0.00","N","10","","0","0","0","0","","0","0","","0","0","","0","0","","0","0","0.00","CASSA","4","0.00","2021-09-02","11:36:24","2021-09-02","0.63","0.00","0.00","0.00","0.00","3.50","0.00","0.00","0.00","0.00","0.00","0.00","1","1","2.87","0.00","0.00","0.00","0.00","22.00","0","0","0","0","0.00","0.00","","0323","null","1","2","3","4","5","0","0","0","null"
"","387","CAS_20210902113911826","1","SCONTRINO","11.00","0.00","0.00","11.00","CASSA","ASPORTO00001CAS_20210902113911826","02-09-21","11:39:24","PIZZERIA QUEEN","34","null","null","null","0.00","N","10","","0","0","0","0","","0","0","","0","0","","0","0","","0","0","0.00","CASSA","4","0.00","2021-09-02","11:39:12","2021-09-02","1.98","0.00","0.00","0.00","0.00","11.00","0.00","0.00","0.00","0.00","0.00","0.00","2","1","9.02","0.00","0.00","0.00","0.00","22.00","0","0","0","0","0.00","0.00","","0323","null","1","2","3","4","5","0","0","0","null"
"","388","CAS_2021090211405869","1","SCONTRINO","19.50","0.00","0.00","19.50","CASSA","ASPORTO00001CAS_2021090211405869","02-09-21","11:41:15","PIZZERIA QUEEN","35","null","null","null","0.00","N","10","","0","0","0","0","","0","0","","0","0","","0","0","","0","0","0.00","CASSA","4","0.00","2021-09-02","11:40:58","2021-09-02","3.52","0.00","0.00","0.00","0.00","19.50","0.00","0.00","0.00","0.00","0.00","0.00","3","1","15.98","0.00","0.00","0.00","0.00","22.00","0","0","0","0","0.00","0.00","","0323","null","1","2","3","4","5","0","0","0","null"
"","389","CAS_20210902114142432","1","SCONTRINO","5.00","0.00","0.00","5.00","CASSA","ASPORTO00001CAS_20210902114142432","02-09-21","11:42:00","PIZZERIA QUEEN","36","null","null","null","0.00","N","10","","0","0","0","0","","0","0","","0","0","","0","0","","0","0","0.00","CASSA","4","0.00","2021-09-02","11:41:42","2021-09-02","0.90","0.00","0.00","0.00","0.00","5.00","0.00","0.00","0.00","0.00","0.00","0.00","1","1","4.10","0.00","0.00","0.00","0.00","22.00","0","0","0","0","0.00","0.00","","0323","null","1","2","3","4","5","0","0","0","null"
"","390","CAS_20210902114317677","1","SCONTRINO","11.00","0.00","0.00","11.00","CASSA","ASPORTO00001CAS_20210902114317677","02-09-21","11:43:33","PIZZERIA QUEEN","37","null","null","null","0.00","N","10","","0","0","0","0","","0","0","","0","0","","0","0","","0","0","0.00","CASSA","4","0.00","2021-09-02","11:43:21","2021-09-02","1.98","0.00","0.00","0.00","0.00","11.00","0.00","0.00","0.00","0.00","0.00","0.00","2","1","9.02","0.00","0.00","0.00","0.00","22.00","0","0","0","0","0.00","0.00","","0323","null","1","2","3","4","5","0","0","0","null"
"","391","CAS_20210902123007238","1","SCONTRINO","7.50","0.00","0.00","7.50","CASSA","ASPORTO00001CAS_20210902123007238","02-09-21","12:30:30","PIZZERIA QUEEN","41","null","null","null","0.00","N","10","","0","0","0","0","","0","0","","0","0","","0","0","","0","0","0.00","CASSA","4","0.00","2021-09-02","12:30:15","2021-09-02","1.35","0.00","0.00","0.00","0.00","7.50","0.00","0.00","0.00","0.00","0.00","0.00","3","1","6.15","0.00","0.00","0.00","0.00","22.00","0","0","0","0","0.00","0.00","","0323","null","1","2","3","4","5","0","0","0","null"
"","392","CAS_20210902123007238","1","SCONTRINO","7.50","0.00","0.00","7.50","CASSA","ASPORTO00001CAS_20210902123007238","02-09-21","12:30:48","PIZZERIA QUEEN","42","null","null","null","0.00","N","10","","0","0","0","0","","0","0","","0","0","","0","0","","0","0","0.00","CASSA","4","0.00","2021-09-02","12:30:15","2021-09-02","0.00","0.00","0.00","0.00","0.00","0.00","0.00","0.00","0.00","0.00","0.00","0.00","3","1","0.00","0.00","0.00","0.00","0.00","22.00","0","0","0","0","0.00","0.00","","0323","null","1","2","3","4","5","0","0","0","null"
"","393","CAS_20210902123136840","1","SCONTRINO","7.50","0.00","0.00","7.50","CASSA","ASPORTO00001CAS_20210902123136840","02-09-21","12:31:54","PIZZERIA QUEEN","43","null","null","null","0.00","N","10","","0","0","0","0","","0","0","","0","0","","0","0","","0","0","0.00","CASSA","4","0.00","2021-09-02","12:31:43","2021-09-02","1.35","0.00","0.00","0.00","0.00","7.50","0.00","0.00","0.00","0.00","0.00","0.00","3","1","6.15","0.00","0.00","0.00","0.00","22.00","0","0","0","0","0.00","0.00","","0323","null","1","2","3","4","5","0","0","0","null"
"","394","CAS_20210902123136840","1","SCONTRINO","7.50","0.00","0.00","7.50","CASSA","ASPORTO00001CAS_20210902123136840","02-09-21","12:32:03","PIZZERIA QUEEN","44","null","null","null","0.00","N","10","","0","0","0","0","","0","0","","0","0","","0","0","","0","0","0.00","CASSA","4","0.00","2021-09-02","12:31:43","2021-09-02","0.00","0.00","0.00","0.00","0.00","0.00","0.00","0.00","0.00","0.00","0.00","0.00","3","1","0.00","0.00","0.00","0.00","0.00","22.00","0","0","0","0","0.00","0.00","","0323","null","1","2","3","4","5","0","0","0","null"
"","395","CAS_20210902174559460","1","SCONTRINO","16.50","0.00","0.00","16.50","CASSA","ASPORTO00001CAS_20210902174559460","02-09-21","17:46:18","PIZZERIA QUEEN","27","null","null","null","0.00","N","10","","0","0","0","0","","0","0","","0","0","","0","0","","0","0","0.00","CASSA","4","0.00","2021-09-02","17:46:17","2021-09-02","2.98","0.00","0.00","0.00","0.00","16.50","0.00","0.00","0.00","0.00","0.00","0.00","2","1","13.52","0.00","0.00","0.00","0.00","22.00","0","0","0","0","0.00","0.00","","0325","null","1","2","3","4","5","0","0","0","null"
"","396","CAS_20210902174616866","1","SCONTRINO","17.00","0.00","0.00","17.00","CASSA","ASPORTO00001CAS_20210902174616866","02-09-21","17:46:42","PIZZERIA QUEEN","28","null","null","null","0.00","N","10","","0","0","0","0","","0","0","","0","0","","0","0","","0","0","0.00","CASSA","4","0.00","2021-09-02","17:46:17","2021-09-02","3.07","0.00","0.00","0.00","0.00","17.00","0.00","0.00","0.00","0.00","0.00","0.00","3","1","13.93","0.00","0.00","0.00","0.00","22.00","0","0","0","0","0.00","0.00","","0325","null","1","2","3","4","5","0","0","0","null"
"","397","CAS_20210902174712720","1","SCONTRINO","22.50","0.00","0.00","22.50","CASSA","ASPORTO00001CAS_20210902174712720","02-09-21","17:47:27","PIZZERIA QUEEN","29","null","null","null","0.00","N","10","","0","0","0","0","","0","0","","0","0","","0","0","","0","0","0.00","CASSA","4","0.00","2021-09-02","17:47:13","2021-09-02","4.06","0.00","0.00","0.00","0.00","22.50","0.00","0.00","0.00","0.00","0.00","0.00","3","1","18.44","0.00","0.00","0.00","0.00","22.00","0","0","0","0","0.00","0.00","","0325","null","1","2","3","4","5","0","0","0","null"
"","398","CAS_2021090217482449","1","SCONTRINO","24.00","0.00","0.00","24.00","CASSA","ASPORTO00001CAS_2021090217482449","02-09-21","17:48:43","PIZZERIA QUEEN","30","null","null","null","0.00","N","10","","0","0","0","0","","0","0","","0","0","","0","0","","0","0","0.00","CASSA","4","0.00","2021-09-02","17:48:24","2021-09-02","4.33","0.00","0.00","0.00","0.00","24.00","0.00","0.00","0.00","0.00","0.00","0.00","3","1","19.67","0.00","0.00","0.00","0.00","22.00","0","0","0","0","0.00","0.00","","0325","null","1","2","3","4","5","0","0","0","null"
"","399","CAS_20210902174936135","1","SCONTRINO","30.00","0.00","0.00","30.00","CASSA","ASPORTO00001CAS_20210902174936135","02-09-21","17:50:06","PIZZERIA QUEEN","31","null","null","null","0.00","N","10","","0","0","0","0","","0","0","","0","0","","0","0","","0","0","0.00","CASSA","4","0.00","2021-09-02","17:49:37","2021-09-02","5.41","0.00","0.00","0.00","0.00","30.00","0.00","0.00","0.00","0.00","0.00","0.00","4","1","24.59","0.00","0.00","0.00","0.00","22.00","0","0","0","0","0.00","0.00","","0325","null","1","2","3","4","5","0","0","0","null"
"","400","CAS_20210902175127664","1","SCONTRINO","26.00","0.00","0.00","26.00","CASSA","ASPORTO00001CAS_20210902175127664","02-09-21","17:51:48","PIZZERIA QUEEN","32","null","null","null","0.00","N","10","","0","0","0","0","","0","0","","0","0","","0","0","","0","0","0.00","CASSA","4","0.00","2021-09-02","17:51:28","2021-09-02","4.69","0.00","0.00","0.00","0.00","26.00","0.00","0.00","0.00","0.00","0.00","0.00","4","1","21.31","0.00","0.00","0.00","0.00","22.00","0","0","0","0","0.00","0.00","","0325","null","1","2","3","4","5","0","0","0","null"
"","401","CAS_20210902175207786","1","SCONTRINO","37.50","0.00","0.00","37.50","CASSA","ASPORTO00001CAS_20210902175207786","02-09-21","17:52:21","PIZZERIA QUEEN","33","null","null","null","0.00","N","10","","0","0","0","0","","0","0","","0","0","","0","0","","0","0","0.00","CASSA","4","0.00","2021-09-02","17:52:09","2021-09-02","6.76","0.00","0.00","0.00","0.00","37.50","0.00","0.00","0.00","0.00","0.00","0.00","5","1","30.74","0.00","0.00","0.00","0.00","22.00","0","0","0","0","0.00","0.00","","0325","null","1","2","3","4","5","0","0","0","null"
"","402","CAS_20210902175231374","1","SCONTRINO","29.50","0.00","0.00","29.50","CASSA","ASPORTO00001CAS_20210902175231374","02-09-21","17:53:00","PIZZERIA QUEEN","34","null","null","null","0.00","N","10","","0","0","0","0","","0","0","","0","0","","0","0","","0","0","0.00","CASSA","4","0.00","2021-09-02","17:52:33","2021-09-02","5.32","0.00","0.00","0.00","0.00","29.50","0.00","0.00","0.00","0.00","0.00","0.00","4","1","24.18","0.00","0.00","0.00","0.00","22.00","0","0","0","0","0.00","0.00","","0325","null","1","2","3","4","5","0","0","0","null"
"","403","CAS_20210902175325320","1","SCONTRINO","14.50","0.00","0.00","14.50","CASSA","ASPORTO00001CAS_20210902175325320","02-09-21","17:54:03","PIZZERIA QUEEN","35","null","null","null","0.00","N","10","","0","0","0","0","","0","0","","0","0","","0","0","","0","0","0.00","CASSA","4","0.00","2021-09-02","17:53:25","2021-09-02","2.61","0.00","0.00","0.00","0.00","14.50","0.00","0.00","0.00","0.00","0.00","0.00","3","1","11.89","0.00","0.00","0.00","0.00","22.00","0","0","0","0","0.00","0.00","","0325","null","1","2","3","4","5","0","0","0","null"
"","404","CAS_20210902180033542","1","SCONTRINO","25.50","0.00","0.00","25.50","CASSA","ASPORTO00001CAS_20210902180033542","02-09-21","18:00:58","PIZZERIA QUEEN","36","null","null","null","0.00","N","10","","0","0","0","0","","0","0","","0","0","","0","0","","0","0","0.00","CASSA","4","0.00","2021-09-02","18:00:34","2021-09-02","4.60","0.00","0.00","0.00","0.00","25.50","0.00","0.00","0.00","0.00","0.00","0.00","3","1","20.90","0.00","0.00","0.00","0.00","22.00","0","0","0","0","0.00","0.00","","0325","null","1","2","3","4","5","0","0","0","null"
"","405","CAS_20210902180735278","1","SCONTRINO","17.00","0.00","0.00","17.00","CASSA","ASPORTO00001CAS_20210902180735278","02-09-21","18:08:04","PIZZERIA QUEEN","37","null","null","null","0.00","N","10","","0","0","0","0","","0","0","","0","0","","0","0","","0","0","0.00","CASSA","4","0.00","2021-09-02","18:07:35","2021-09-02","3.07","0.00","0.00","0.00","0.00","17.00","0.00","0.00","0.00","0.00","0.00","0.00","2","1","13.93","0.00","0.00","0.00","0.00","22.00","0","0","0","0","0.00","0.00","","0325","null","1","2","3","4","5","0","0","0","null"
"","406","CAS_20210902181037158","1","SCONTRINO","38.00","0.00","0.00","38.00","CASSA","ASPORTO00001CAS_20210902181037158","02-09-21","18:15:10","PIZZERIA QUEEN","38","null","null","null","0.00","N","10","","0","0","0","0","","0","0","","0","0","","0","0","","0","0","0.00","CASSA","4","0.00","2021-09-02","18:10:39","2021-09-02","6.85","0.00","0.00","0.00","0.00","38.00","0.00","0.00","0.00","0.00","0.00","0.00","5","1","31.15","0.00","0.00","0.00","0.00","22.00","0","0","0","0","0.00","0.00","","0325","null","1","2","3","4","5","0","0","0","null"
"","407","CAS_20210902181820142","1","SCONTRINO","13.50","0.00","0.00","13.50","CASSA","ASPORTO00001CAS_20210902181820142","02-09-21","18:19:10","PIZZERIA QUEEN","39","null","null","null","0.00","N","10","","0","0","0","0","","0","0","","0","0","","0","0","","0","0","0.00","CASSA","4","0.00","2021-09-02","18:18:20","2021-09-02","2.43","0.00","0.00","0.00","0.00","13.50","0.00","0.00","0.00","0.00","0.00","0.00","2","1","11.07","0.00","0.00","0.00","0.00","22.00","0","0","0","0","0.00","0.00","","0325","null","1","2","3","4","5","0","0","0","null"
"","408","CAS_20210902181953563","1","SCONTRINO","68.00","0.00","0.00","68.00","CASSA","ASPORTO00001CAS_20210902181953563","02-09-21","18:20:20","PIZZERIA QUEEN","40","null","null","null","0.00","N","10","","0","0","0","0","","0","0","","0","0","","0","0","","0","0","0.00","CASSA","4","0.00","2021-09-02","18:19:58","2021-09-02","12.26","0.00","0.00","0.00","0.00","68.00","0.00","0.00","0.00","0.00","0.00","0.00","9","1","55.74","0.00","0.00","0.00","0.00","22.00","0","0","0","0","0.00","0.00","","0325","null","1","2","3","4","5","0","0","0","null"
"","409","CAS_2021090218202576","1","SCONTRINO","26.50","0.00","0.00","26.50","CASSA","ASPORTO00001CAS_2021090218202576","02-09-21","18:20:43","PIZZERIA QUEEN","41","null","null","null","0.00","N","10","","0","0","0","0","","0","0","","0","0","","0","0","","0","0","0.00","CASSA","4","0.00","2021-09-02","18:20:27","2021-09-02","4.78","0.00","0.00","0.00","0.00","26.50","0.00","0.00","0.00","0.00","0.00","0.00","3","1","21.72","0.00","0.00","0.00","0.00","22.00","0","0","0","0","0.00","0.00","","0325","null","1","2","3","4","5","0","0","0","null"
"","410","CAS_2021090218205755","1","SCONTRINO","13.50","0.00","0.00","13.50","CASSA","ASPORTO00001CAS_2021090218205755","02-09-21","18:21:34","PIZZERIA QUEEN","42","null","null","null","0.00","N","10","","0","0","0","0","","0","0","","0","0","","0","0","","0","0","0.00","CASSA","4","0.00","2021-09-02","18:20:58","2021-09-02","2.43","0.00","0.00","0.00","0.00","13.50","0.00","0.00","0.00","0.00","0.00","0.00","2","1","11.07","0.00","0.00","0.00","0.00","22.00","0","0","0","0","0.00","0.00","","0325","null","1","2","3","4","5","0","0","0","null"
"","411","CAS_2021090218240130","1","SCONTRINO","23.00","0.00","0.00","23.00","CASSA","ASPORTO00001CAS_2021090218240130","02-09-21","18:24:22","PIZZERIA QUEEN","43","null","null","null","0.00","N","10","","0","0","0","0","","0","0","","0","0","","0","0","","0","0","0.00","CASSA","4","0.00","2021-09-02","18:24:02","2021-09-02","4.15","0.00","0.00","0.00","0.00","23.00","0.00","0.00","0.00","0.00","0.00","0.00","3","1","18.85","0.00","0.00","0.00","0.00","22.00","0","0","0","0","0.00","0.00","","0325","null","1","2","3","4","5","0","0","0","null"
"","412","CAS_20210902182513122","1","SCONTRINO","29.00","0.00","0.00","29.00","CASSA","ASPORTO00001CAS_20210902182513122","02-09-21","18:25:31","PIZZERIA QUEEN","44","null","null","null","0.00","N","10","","0","0","0","0","","0","0","","0","0","","0","0","","0","0","0.00","CASSA","4","0.00","2021-09-02","18:25:14","2021-09-02","5.23","0.00","0.00","0.00","0.00","29.00","0.00","0.00","0.00","0.00","0.00","0.00","4","1","23.77","0.00","0.00","0.00","0.00","22.00","0","0","0","0","0.00","0.00","","0325","null","1","2","3","4","5","0","0","0","null"
"","361","CAS_20210901094936639","1","SCONTRINO","22.00","0.00","0.00","22.00","CASSA","ASPORTO00001CAS_20210901094936639","01-09-21","09:50:00","PIZZERIA QUEEN","310","null","null","null","0.00","N","10","","0","0","0","0","","0","0","","0","0","","0","0","","0","0","0.00","CASSA","3","0.00","2021-09-01","09:49:37","2021-09-01","2.00","0.00","0.00","0.00","0.00","22.00","0.00","0.00","0.00","0.00","0.00","0.00","4","1","20.00","0.00","0.00","0.00","0.00","10.00","0","0","0","0","0.00","0.00","","0322","null","1","2","3","4","5","0","0","0","null"
"","362","CAS_20210901095006351","1","SCONTRINO","33.00","0.00","0.00","33.00","CASSA","ASPORTO00001CAS_20210901095006351","01-09-21","09:50:18","PIZZERIA QUEEN","311","null","null","null","0.00","N","10","","0","0","0","0","","0","0","","0","0","","0","0","","0","0","0.00","CASSA","3","0.00","2021-09-01","09:50:07","2021-09-01","3.00","0.00","0.00","0.00","0.00","33.00","0.00","0.00","0.00","0.00","0.00","0.00","5","1","30.00","0.00","0.00","0.00","0.00","10.00","0","0","0","0","0.00","0.00","","0322","null","1","2","3","4","5","0","0","0","null"
"","363","CAS_20210901100357636","1","SCONTRINO","15.00","0.00","0.00","15.00","CASSA","ASPORTO00001CAS_20210901100357636","01-09-21","10:04:35","PIZZERIA QUEEN","313","null","null","null","0.00","N","10","","0","0","0","0","","0","0","","0","0","","0","0","","0","0","0.00","CASSA","3","0.00","2021-09-01","10:03:59","2021-09-01","1.36","0.00","0.00","0.00","0.00","15.00","0.00","0.00","0.00","0.00","0.00","0.00","2","1","13.64","0.00","0.00","0.00","0.00","10.00","0","0","0","0","0.00","0.00","","0322","null","1","2","3","4","5","0","0","0","null"
"","364","CAS_20210901100548957","1","SCONTRINO","16.00","0.00","0.00","16.00","CASSA","ASPORTO00001CAS_20210901100548957","01-09-21","10:06:17","PIZZERIA QUEEN","314","null","null","null","0.00","N","10","","0","0","0","0","","0","0","","0","0","","0","0","","0","0","0.00","CASSA","3","0.00","2021-09-01","10:05:49","2021-09-01","1.45","0.00","0.00","0.00","0.00","16.00","0.00","0.00","0.00","0.00","0.00","0.00","2","1","14.55","0.00","0.00","0.00","0.00","10.00","0","0","0","0","0.00","0.00","","0322","null","1","2","3","4","5","0","0","0","null"
"","365","CAS_20210901100656364","1","SCONTRINO","97.00","0.00","0.00","97.00","CASSA","ASPORTO00001CAS_20210901100656364","01-09-21","10:07:23","PIZZERIA QUEEN","315","null","null","null","0.00","N","10","","0","0","0","0","","0","0","","0","0","","0","0","","0","0","0.00","CASSA","3","0.00","2021-09-01","10:06:59","2021-09-01","8.82","0.00","0.00","0.00","0.00","97.00","0.00","0.00","0.00","0.00","0.00","0.00","13","1","88.18","0.00","0.00","0.00","0.00","10.00","0","0","0","0","0.00","0.00","","0322","null","1","2","3","4","5","0","0","0","null"
"","366","CAS_20210901174014162","1","SCONTRINO","34.00","0.00","0.00","34.00","CASSA","ASPORTO00001CAS_20210901174014162","01-09-21","17:40:37","PIZZERIA QUEEN","2","null","null","null","0.00","N","10","","0","0","0","0","","0","0","","0","0","","0","0","","0","0","0.00","CASSA","3","0.00","2021-09-01","17:40:15","2021-09-01","6.13","0.00","0.00","0.00","0.00","34.00","0.00","0.00","0.00","0.00","0.00","0.00","4","1","27.87","0.00","0.00","0.00","0.00","22.00","0","0","0","0","0.00","0.00","","0323","null","1","2","3","4","5","0","0","0","null"
"","367","CAS_20210901174108170","1","SCONTRINO","17.00","0.00","0.00","17.00","CASSA","ASPORTO00001CAS_20210901174108170","01-09-21","17:42:31","PIZZERIA QUEEN","3","null","null","null","0.00","N","10","","0","0","0","0","","0","0","","0","0","","0","0","","0","0","0.00","CASSA","3","0.00","2021-09-01","17:41:08","2021-09-01","3.07","0.00","0.00","0.00","0.00","17.00","0.00","0.00","0.00","0.00","0.00","0.00","3","1","13.93","0.00","0.00","0.00","0.00","22.00","0","0","0","0","0.00","0.00","","0323","null","1","2","3","4","5","0","0","0","null"
"","368","CAS_20210901174512698","1","SCONTRINO","20.50","0.00","0.00","20.50","CASSA","ASPORTO00001CAS_20210901174512698","01-09-21","17:45:34","PIZZERIA QUEEN","4","null","null","null","0.00","N","10","","0","0","0","0","","0","0","","0","0","","0","0","","0","0","0.00","CASSA","3","0.00","2021-09-01","17:45:13","2021-09-01","3.70","0.00","0.00","0.00","0.00","20.50","0.00","0.00","0.00","0.00","0.00","0.00","3","1","16.80","0.00","0.00","0.00","0.00","22.00","0","0","0","0","0.00","0.00","","0323","null","1","2","3","4","5","0","0","0","null"
"","369","CAS_20210901174512698","1","SCONTRINO","20.50","0.00","0.00","20.50","CASSA","ASPORTO00001CAS_20210901174512698","01-09-21","17:45:58","PIZZERIA QUEEN","5","null","null","null","0.00","N","10","","0","0","0","0","","0","0","","0","0","","0","0","","0","0","0.00","CASSA","3","0.00","2021-09-01","17:45:13","2021-09-01","0.00","0.00","0.00","0.00","0.00","0.00","0.00","0.00","0.00","0.00","0.00","0.00","3","1","0.00","0.00","0.00","0.00","0.00","22.00","0","0","0","0","0.00","0.00","","0323","null","1","2","3","4","5","0","0","0","null"
"","370","CAS_20210901174632865","1","SCONTRINO","10.00","0.00","0.00","10.00","CASSA","ASPORTO00001CAS_20210901174632865","01-09-21","17:46:46","PIZZERIA QUEEN","6","null","null","null","0.00","N","10","","0","0","0","0","","0","0","","0","0","","0","0","","0","0","0.00","CASSA","3","0.00","2021-09-01","17:46:32","2021-09-01","1.80","0.00","0.00","0.00","0.00","10.00","0.00","0.00","0.00","0.00","0.00","0.00","1","1","8.20","0.00","0.00","0.00","0.00","22.00","0","0","0","0","0.00","0.00","","0323","null","1","2","3","4","5","0","0","0","null"
"","371","CAS_20210901174632865","1","SCONTRINO","10.00","0.00","0.00","10.00","CASSA","ASPORTO00001CAS_20210901174632865","01-09-21","17:47:04","PIZZERIA QUEEN","7","null","null","null","0.00","N","10","","0","0","0","0","","0","0","","0","0","","0","0","","0","0","0.00","CASSA","3","0.00","2021-09-01","17:46:32","2021-09-01","0.00","0.00","0.00","0.00","0.00","0.00","0.00","0.00","0.00","0.00","0.00","0.00","1","1","0.00","0.00","0.00","0.00","0.00","22.00","0","0","0","0","0.00","0.00","","0323","null","1","2","3","4","5","0","0","0","null"
"","372","CAS_20210901175101375","1","SCONTRINO","7.50","0.00","0.00","7.50","CASSA","ASPORTO00001CAS_20210901175101375","01-09-21","17:51:26","PIZZERIA QUEEN","8","null","null","null","0.00","N","10","","0","0","0","0","","0","0","","0","0","","0","0","","0","0","0.00","CASSA","3","0.00","2021-09-01","17:51:04","2021-09-01","1.35","0.00","0.00","0.00","0.00","7.50","0.00","0.00","0.00","0.00","0.00","0.00","3","1","6.15","0.00","0.00","0.00","0.00","22.00","0","0","0","0","0.00","0.00","","0323","null","1","2","3","4","5","0","0","0","null"
"","373","CAS_20210901175101375","1","SCONTRINO","7.50","0.00","0.00","7.50","CASSA","ASPORTO00001CAS_20210901175101375","01-09-21","17:51:33","PIZZERIA QUEEN","9","null","null","null","0.00","N","10","","0","0","0","0","","0","0","","0","0","","0","0","","0","0","0.00","CASSA","3","0.00","2021-09-01","17:51:04","2021-09-01","0.00","0.00","0.00","0.00","0.00","0.00","0.00","0.00","0.00","0.00","0.00","0.00","3","1","0.00","0.00","0.00","0.00","0.00","22.00","0","0","0","0","0.00","0.00","","0323","null","1","2","3","4","5","0","0","0","null"
"","374","CAS_20210901175232538","1","SCONTRINO","12.50","0.00","0.00","12.50","CASSA","ASPORTO00001CAS_20210901175232538","01-09-21","17:52:51","PIZZERIA QUEEN","10","null","null","null","0.00","N","10","","0","0","0","0","","0","0","","0","0","","0","0","","0","0","0.00","CASSA","3","0.00","2021-09-01","17:52:35","2021-09-01","2.25","0.00","0.00","0.00","0.00","12.50","0.00","0.00","0.00","0.00","0.00","0.00","4","1","10.25","0.00","0.00","0.00","0.00","22.00","0","0","0","0","0.00","0.00","","0323","null","1","2","3","4","5","0","0","0","null"
"","375","CAS_20210901175232538","1","SCONTRINO","12.50","0.00","0.00","12.50","CASSA","ASPORTO00001CAS_20210901175232538","01-09-21","17:53:18","PIZZERIA QUEEN","11","null","null","null","0.00","N","10","","0","0","0","0","","0","0","","0","0","","0","0","","0","0","0.00","CASSA","3","0.00","2021-09-01","17:52:35","2021-09-01","0.00","0.00","0.00","0.00","0.00","0.00","0.00","0.00","0.00","0.00","0.00","0.00","4","1","0.00","0.00","0.00","0.00","0.00","22.00","0","0","0","0","0.00","0.00","","0323","null","1","2","3","4","5","0","0","0","null"
"","376","CAS_20210901181147998","1","SCONTRINO","10.50","0.00","0.00","10.50","CASSA","ASPORTO00001CAS_20210901181147998","01-09-21","18:12:03","PIZZERIA QUEEN","12","null","null","null","0.00","N","10","","0","0","0","0","","0","0","","0","0","","0","0","","0","0","0.00","CASSA","3","0.00","2021-09-01","18:11:49","2021-09-01","1.89","0.00","0.00","0.00","0.00","10.50","0.00","0.00","0.00","0.00","0.00","0.00","3","1","8.61","0.00","0.00","0.00","0.00","22.00","0","0","0","0","0.00","0.00","","0323","null","1","2","3","4","5","0","0","0","null"
"","377","CAS_20210901181147998","1","SCONTRINO","10.50","0.00","0.00","10.50","CASSA","ASPORTO00001CAS_20210901181147998","01-09-21","18:12:21","PIZZERIA QUEEN","13","null","null","null","0.00","N","10","","0","0","0","0","","0","0","","0","0","","0","0","","0","0","0.00","CASSA","3","0.00","2021-09-01","18:11:49","2021-09-01","0.00","0.00","0.00","0.00","0.00","0.00","0.00","0.00","0.00","0.00","0.00","0.00","3","1","0.00","0.00","0.00","0.00","0.00","22.00","0","0","0","0","0.00","0.00","","0323","null","1","2","3","4","5","0","0","0","null"
"","378","CAS_2021090118141786","1","SCONTRINO","11.00","0.00","0.00","11.00","CASSA","ASPORTO00001CAS_2021090118141786","01-09-21","18:16:06","PIZZERIA QUEEN","14","null","null","null","0.00","N","10","","0","0","0","0","","0","0","","0","0","","0","0","","0","0","0.00","CASSA","3","0.00","2021-09-01","18:14:22","2021-09-01","1.98","0.00","0.00","0.00","0.00","11.00","0.00","0.00","0.00","0.00","0.00","0.00","2","1","9.02","0.00","0.00","0.00","0.00","22.00","0","0","0","0","0.00","0.00","","0323","null","1","2","3","4","5","0","0","0","null"
"","379","CAS_20210902091557162","1","SCONTRINO","7.00","0.00","0.00","7.00","CASSA","ASPORTO00001CAS_20210902091557162","02-09-21","09:16:31","PIZZERIA QUEEN","15","null","null","null","0.00","N","10","","0","0","0","0","","0","0","","0","0","","0","0","","0","0","0.00","CASSA","4","0.00","2021-09-02","09:16:12","2021-09-02","1.26","0.00","0.00","0.00","0.00","7.00","0.00","0.00","0.00","0.00","0.00","0.00","2","1","5.74","0.00","0.00","0.00","0.00","22.00","0","0","0","0","0.00","0.00","","0323","null","1","2","3","4","5","0","0","0","null"
"","380","CAS_20210902091730253","1","SCONTRINO","25.00","0.00","0.00","25.00","CASSA","ASPORTO00001CAS_20210902091730253","02-09-21","09:18:01","PIZZERIA QUEEN","16","null","null","null","0.00","N","10","","0","0","0","0","","0","0","","0","0","","0","0","","0","0","0.00","CASSA","4","0.00","2021-09-02","09:17:43","2021-09-02","4.51","0.00","0.00","0.00","0.00","25.00","0.00","0.00","0.00","0.00","0.00","0.00","6","1","20.49","0.00","0.00","0.00","0.00","22.00","0","0","0","0","0.00","0.00","","0323","null","1","2","3","4","5","0","0","0","null"
"","381","CAS_20210902091730253","1","SCONTRINO","25.00","0.00","0.00","25.00","CASSA","ASPORTO00001CAS_20210902091730253","02-09-21","09:18:16","PIZZERIA QUEEN","17","null","null","null","0.00","N","10","","0","0","0","0","","0","0","","0","0","","0","0","","0","0","0.00","CASSA","4","0.00","2021-09-02","09:17:43","2021-09-02","0.00","0.00","0.00","0.00","0.00","0.00","0.00","0.00","0.00","0.00","0.00","0.00","6","1","0.00","0.00","0.00","0.00","0.00","22.00","0","0","0","0","0.00","0.00","","0323","null","1","2","3","4","5","0","0","0","null"
"","382","CAS_20210902092029634","1","SCONTRINO","57.00","0.00","0.00","57.00","CASSA","ASPORTO00001CAS_20210902092029634","02-09-21","09:21:04","PIZZERIA QUEEN","18","null","null","null","0.00","N","10","","0","0","0","0","","0","0","","0","0","","0","0","","0","0","0.00","CASSA","4","0.00","2021-09-02","09:20:38","2021-09-02","10.28","0.00","0.00","0.00","0.00","57.00","0.00","0.00","0.00","0.00","0.00","0.00","8","1","46.72","0.00","0.00","0.00","0.00","22.00","0","0","0","0","0.00","0.00","","0323","null","1","2","3","4","5","0","0","0","null"
"","383","CAS_20210902092656971","1","SCONTRINO","35.00","0.00","0.00","35.00","CASSA","ASPORTO00001CAS_20210902092656971","02-09-21","09:27:29","PIZZERIA QUEEN","19","null","null","null","0.00","N","10","","0","0","0","0","","0","0","","0","0","","0","0","","0","0","0.00","CASSA","4","0.00","2021-09-02","09:27:05","2021-09-02","6.31","0.00","0.00","0.00","0.00","35.00","0.00","0.00","0.00","0.00","0.00","0.00","10","1","28.69","0.00","0.00","0.00","0.00","22.00","0","0","0","0","0.00","0.00","","0323","null","1","2","3","4","5","0","0","0","null"
"","384","CAS_20210902093713240","1","SCONTRINO","35.00","0.00","0.00","35.00","CASSA","ASPORTO00001CAS_20210902093713240","02-09-21","09:37:37","PIZZERIA QUEEN","20","null","null","null","0.00","N","10","","0","0","0","0","","0","0","","0","0","","0","0","","0","0","0.00","CASSA","4","0.00","2021-09-02","09:37:19","2021-09-02","6.31","0.00","0.00","0.00","0.00","35.00","0.00","0.00","0.00","0.00","0.00","0.00","10","1","28.69","0.00","0.00","0.00","0.00","22.00","0","0","0","0","0.00","0.00","","0323","null","1","2","3","4","5","0","0","0","null"
"","385","CAS_20210902093905983","1","SCONTRINO","11.00","0.00","0.00","11.00","CASSA","ASPORTO00001CAS_20210902093905983","02-09-21","09:39:34","PIZZERIA QUEEN","21","null","null","null","0.00","N","10","","0","0","0","0","","0","0","","0","0","","0","0","","0","0","0.00","CASSA","4","0.00","2021-09-02","09:39:10","2021-09-02","1.98","0.00","0.00","0.00","0.00","11.00","0.00","0.00","0.00","0.00","0.00","0.00","2","1","9.02","0.00","0.00","0.00","0.00","22.00","0","0","0","0","0.00","0.00","","0323","null","1","2","3","4","5","0","0","0","null"
"","386","CAS_20210902113624639","1","SCONTRINO","3.50","0.00","0.00","3.50","CASSA","ASPORTO00001CAS_20210902113624639","02-09-21","11:39:03","PIZZERIA QUEEN","33","null","null","null","0.00","N","10","","0","0","0","0","","0","0","","0","0","","0","0","","0","0","0.00","CASSA","4","0.00","2021-09-02","11:36:24","2021-09-02","0.63","0.00","0.00","0.00","0.00","3.50","0.00","0.00","0.00","0.00","0.00","0.00","1","1","2.87","0.00","0.00","0.00","0.00","22.00","0","0","0","0","0.00","0.00","","0323","null","1","2","3","4","5","0","0","0","null"
"","387","CAS_20210902113911826","1","SCONTRINO","11.00","0.00","0.00","11.00","CASSA","ASPORTO00001CAS_20210902113911826","02-09-21","11:39:24","PIZZERIA QUEEN","34","null","null","null","0.00","N","10","","0","0","0","0","","0","0","","0","0","","0","0","","0","0","0.00","CASSA","4","0.00","2021-09-02","11:39:12","2021-09-02","1.98","0.00","0.00","0.00","0.00","11.00","0.00","0.00","0.00","0.00","0.00","0.00","2","1","9.02","0.00","0.00","0.00","0.00","22.00","0","0","0","0","0.00","0.00","","0323","null","1","2","3","4","5","0","0","0","null"
"","388","CAS_2021090211405869","1","SCONTRINO","19.50","0.00","0.00","19.50","CASSA","ASPORTO00001CAS_2021090211405869","02-09-21","11:41:15","PIZZERIA QUEEN","35","null","null","null","0.00","N","10","","0","0","0","0","","0","0","","0","0","","0","0","","0","0","0.00","CASSA","4","0.00","2021-09-02","11:40:58","2021-09-02","3.52","0.00","0.00","0.00","0.00","19.50","0.00","0.00","0.00","0.00","0.00","0.00","3","1","15.98","0.00","0.00","0.00","0.00","22.00","0","0","0","0","0.00","0.00","","0323","null","1","2","3","4","5","0","0","0","null"
"","389","CAS_20210902114142432","1","SCONTRINO","5.00","0.00","0.00","5.00","CASSA","ASPORTO00001CAS_20210902114142432","02-09-21","11:42:00","PIZZERIA QUEEN","36","null","null","null","0.00","N","10","","0","0","0","0","","0","0","","0","0","","0","0","","0","0","0.00","CASSA","4","0.00","2021-09-02","11:41:42","2021-09-02","0.90","0.00","0.00","0.00","0.00","5.00","0.00","0.00","0.00","0.00","0.00","0.00","1","1","4.10","0.00","0.00","0.00","0.00","22.00","0","0","0","0","0.00","0.00","","0323","null","1","2","3","4","5","0","0","0","null"
"","390","CAS_20210902114317677","1","SCONTRINO","11.00","0.00","0.00","11.00","CASSA","ASPORTO00001CAS_20210902114317677","02-09-21","11:43:33","PIZZERIA QUEEN","37","null","null","null","0.00","N","10","","0","0","0","0","","0","0","","0","0","","0","0","","0","0","0.00","CASSA","4","0.00","2021-09-02","11:43:21","2021-09-02","1.98","0.00","0.00","0.00","0.00","11.00","0.00","0.00","0.00","0.00","0.00","0.00","2","1","9.02","0.00","0.00","0.00","0.00","22.00","0","0","0","0","0.00","0.00","","0323","null","1","2","3","4","5","0","0","0","null"
"","391","CAS_20210902123007238","1","SCONTRINO","7.50","0.00","0.00","7.50","CASSA","ASPORTO00001CAS_20210902123007238","02-09-21","12:30:30","PIZZERIA QUEEN","41","null","null","null","0.00","N","10","","0","0","0","0","","0","0","","0","0","","0","0","","0","0","0.00","CASSA","4","0.00","2021-09-02","12:30:15","2021-09-02","1.35","0.00","0.00","0.00","0.00","7.50","0.00","0.00","0.00","0.00","0.00","0.00","3","1","6.15","0.00","0.00","0.00","0.00","22.00","0","0","0","0","0.00","0.00","","0323","null","1","2","3","4","5","0","0","0","null"
"","392","CAS_20210902123007238","1","SCONTRINO","7.50","0.00","0.00","7.50","CASSA","ASPORTO00001CAS_20210902123007238","02-09-21","12:30:48","PIZZERIA QUEEN","42","null","null","null","0.00","N","10","","0","0","0","0","","0","0","","0","0","","0","0","","0","0","0.00","CASSA","4","0.00","2021-09-02","12:30:15","2021-09-02","0.00","0.00","0.00","0.00","0.00","0.00","0.00","0.00","0.00","0.00","0.00","0.00","3","1","0.00","0.00","0.00","0.00","0.00","22.00","0","0","0","0","0.00","0.00","","0323","null","1","2","3","4","5","0","0","0","null"
"","393","CAS_20210902123136840","1","SCONTRINO","7.50","0.00","0.00","7.50","CASSA","ASPORTO00001CAS_20210902123136840","02-09-21","12:31:54","PIZZERIA QUEEN","43","null","null","null","0.00","N","10","","0","0","0","0","","0","0","","0","0","","0","0","","0","0","0.00","CASSA","4","0.00","2021-09-02","12:31:43","2021-09-02","1.35","0.00","0.00","0.00","0.00","7.50","0.00","0.00","0.00","0.00","0.00","0.00","3","1","6.15","0.00","0.00","0.00","0.00","22.00","0","0","0","0","0.00","0.00","","0323","null","1","2","3","4","5","0","0","0","null"
"","394","CAS_20210902123136840","1","SCONTRINO","7.50","0.00","0.00","7.50","CASSA","ASPORTO00001CAS_20210902123136840","02-09-21","12:32:03","PIZZERIA QUEEN","44","null","null","null","0.00","N","10","","0","0","0","0","","0","0","","0","0","","0","0","","0","0","0.00","CASSA","4","0.00","2021-09-02","12:31:43","2021-09-02","0.00","0.00","0.00","0.00","0.00","0.00","0.00","0.00","0.00","0.00","0.00","0.00","3","1","0.00","0.00","0.00","0.00","0.00","22.00","0","0","0","0","0.00","0.00","","0323","null","1","2","3","4","5","0","0","0","null"
"","395","CAS_20210902174559460","1","SCONTRINO","16.50","0.00","0.00","16.50","CASSA","ASPORTO00001CAS_20210902174559460","02-09-21","17:46:18","PIZZERIA QUEEN","27","null","null","null","0.00","N","10","","0","0","0","0","","0","0","","0","0","","0","0","","0","0","0.00","CASSA","4","0.00","2021-09-02","17:46:17","2021-09-02","2.98","0.00","0.00","0.00","0.00","16.50","0.00","0.00","0.00","0.00","0.00","0.00","2","1","13.52","0.00","0.00","0.00","0.00","22.00","0","0","0","0","0.00","0.00","","0325","null","1","2","3","4","5","0","0","0","null"
"","396","CAS_20210902174616866","1","SCONTRINO","17.00","0.00","0.00","17.00","CASSA","ASPORTO00001CAS_20210902174616866","02-09-21","17:46:42","PIZZERIA QUEEN","28","null","null","null","0.00","N","10","","0","0","0","0","","0","0","","0","0","","0","0","","0","0","0.00","CASSA","4","0.00","2021-09-02","17:46:17","2021-09-02","3.07","0.00","0.00","0.00","0.00","17.00","0.00","0.00","0.00","0.00","0.00","0.00","3","1","13.93","0.00","0.00","0.00","0.00","22.00","0","0","0","0","0.00","0.00","","0325","null","1","2","3","4","5","0","0","0","null"
"","397","CAS_20210902174712720","1","SCONTRINO","22.50","0.00","0.00","22.50","CASSA","ASPORTO00001CAS_20210902174712720","02-09-21","17:47:27","PIZZERIA QUEEN","29","null","null","null","0.00","N","10","","0","0","0","0","","0","0","","0","0","","0","0","","0","0","0.00","CASSA","4","0.00","2021-09-02","17:47:13","2021-09-02","4.06","0.00","0.00","0.00","0.00","22.50","0.00","0.00","0.00","0.00","0.00","0.00","3","1","18.44","0.00","0.00","0.00","0.00","22.00","0","0","0","0","0.00","0.00","","0325","null","1","2","3","4","5","0","0","0","null"
"","398","CAS_2021090217482449","1","SCONTRINO","24.00","0.00","0.00","24.00","CASSA","ASPORTO00001CAS_2021090217482449","02-09-21","17:48:43","PIZZERIA QUEEN","30","null","null","null","0.00","N","10","","0","0","0","0","","0","0","","0","0","","0","0","","0","0","0.00","CASSA","4","0.00","2021-09-02","17:48:24","2021-09-02","4.33","0.00","0.00","0.00","0.00","24.00","0.00","0.00","0.00","0.00","0.00","0.00","3","1","19.67","0.00","0.00","0.00","0.00","22.00","0","0","0","0","0.00","0.00","","0325","null","1","2","3","4","5","0","0","0","null"
"","399","CAS_20210902174936135","1","SCONTRINO","30.00","0.00","0.00","30.00","CASSA","ASPORTO00001CAS_20210902174936135","02-09-21","17:50:06","PIZZERIA QUEEN","31","null","null","null","0.00","N","10","","0","0","0","0","","0","0","","0","0","","0","0","","0","0","0.00","CASSA","4","0.00","2021-09-02","17:49:37","2021-09-02","5.41","0.00","0.00","0.00","0.00","30.00","0.00","0.00","0.00","0.00","0.00","0.00","4","1","24.59","0.00","0.00","0.00","0.00","22.00","0","0","0","0","0.00","0.00","","0325","null","1","2","3","4","5","0","0","0","null"
"","400","CAS_20210902175127664","1","SCONTRINO","26.00","0.00","0.00","26.00","CASSA","ASPORTO00001CAS_20210902175127664","02-09-21","17:51:48","PIZZERIA QUEEN","32","null","null","null","0.00","N","10","","0","0","0","0","","0","0","","0","0","","0","0","","0","0","0.00","CASSA","4","0.00","2021-09-02","17:51:28","2021-09-02","4.69","0.00","0.00","0.00","0.00","26.00","0.00","0.00","0.00","0.00","0.00","0.00","4","1","21.31","0.00","0.00","0.00","0.00","22.00","0","0","0","0","0.00","0.00","","0325","null","1","2","3","4","5","0","0","0","null"
"","401","CAS_20210902175207786","1","SCONTRINO","37.50","0.00","0.00","37.50","CASSA","ASPORTO00001CAS_20210902175207786","02-09-21","17:52:21","PIZZERIA QUEEN","33","null","null","null","0.00","N","10","","0","0","0","0","","0","0","","0","0","","0","0","","0","0","0.00","CASSA","4","0.00","2021-09-02","17:52:09","2021-09-02","6.76","0.00","0.00","0.00","0.00","37.50","0.00","0.00","0.00","0.00","0.00","0.00","5","1","30.74","0.00","0.00","0.00","0.00","22.00","0","0","0","0","0.00","0.00","","0325","null","1","2","3","4","5","0","0","0","null"
"","402","CAS_20210902175231374","1","SCONTRINO","29.50","0.00","0.00","29.50","CASSA","ASPORTO00001CAS_20210902175231374","02-09-21","17:53:00","PIZZERIA QUEEN","34","null","null","null","0.00","N","10","","0","0","0","0","","0","0","","0","0","","0","0","","0","0","0.00","CASSA","4","0.00","2021-09-02","17:52:33","2021-09-02","5.32","0.00","0.00","0.00","0.00","29.50","0.00","0.00","0.00","0.00","0.00","0.00","4","1","24.18","0.00","0.00","0.00","0.00","22.00","0","0","0","0","0.00","0.00","","0325","null","1","2","3","4","5","0","0","0","null"
"","403","CAS_20210902175325320","1","SCONTRINO","14.50","0.00","0.00","14.50","CASSA","ASPORTO00001CAS_20210902175325320","02-09-21","17:54:03","PIZZERIA QUEEN","35","null","null","null","0.00","N","10","","0","0","0","0","","0","0","","0","0","","0","0","","0","0","0.00","CASSA","4","0.00","2021-09-02","17:53:25","2021-09-02","2.61","0.00","0.00","0.00","0.00","14.50","0.00","0.00","0.00","0.00","0.00","0.00","3","1","11.89","0.00","0.00","0.00","0.00","22.00","0","0","0","0","0.00","0.00","","0325","null","1","2","3","4","5","0","0","0","null"
"","404","CAS_20210902180033542","1","SCONTRINO","25.50","0.00","0.00","25.50","CASSA","ASPORTO00001CAS_20210902180033542","02-09-21","18:00:58","PIZZERIA QUEEN","36","null","null","null","0.00","N","10","","0","0","0","0","","0","0","","0","0","","0","0","","0","0","0.00","CASSA","4","0.00","2021-09-02","18:00:34","2021-09-02","4.60","0.00","0.00","0.00","0.00","25.50","0.00","0.00","0.00","0.00","0.00","0.00","3","1","20.90","0.00","0.00","0.00","0.00","22.00","0","0","0","0","0.00","0.00","","0325","null","1","2","3","4","5","0","0","0","null"
"","405","CAS_20210902180735278","1","SCONTRINO","17.00","0.00","0.00","17.00","CASSA","ASPORTO00001CAS_20210902180735278","02-09-21","18:08:04","PIZZERIA QUEEN","37","null","null","null","0.00","N","10","","0","0","0","0","","0","0","","0","0","","0","0","","0","0","0.00","CASSA","4","0.00","2021-09-02","18:07:35","2021-09-02","3.07","0.00","0.00","0.00","0.00","17.00","0.00","0.00","0.00","0.00","0.00","0.00","2","1","13.93","0.00","0.00","0.00","0.00","22.00","0","0","0","0","0.00","0.00","","0325","null","1","2","3","4","5","0","0","0","null"
"","406","CAS_20210902181037158","1","SCONTRINO","38.00","0.00","0.00","38.00","CASSA","ASPORTO00001CAS_20210902181037158","02-09-21","18:15:10","PIZZERIA QUEEN","38","null","null","null","0.00","N","10","","0","0","0","0","","0","0","","0","0","","0","0","","0","0","0.00","CASSA","4","0.00","2021-09-02","18:10:39","2021-09-02","6.85","0.00","0.00","0.00","0.00","38.00","0.00","0.00","0.00","0.00","0.00","0.00","5","1","31.15","0.00","0.00","0.00","0.00","22.00","0","0","0","0","0.00","0.00","","0325","null","1","2","3","4","5","0","0","0","null"
"","407","CAS_20210902181820142","1","SCONTRINO","13.50","0.00","0.00","13.50","CASSA","ASPORTO00001CAS_20210902181820142","02-09-21","18:19:10","PIZZERIA QUEEN","39","null","null","null","0.00","N","10","","0","0","0","0","","0","0","","0","0","","0","0","","0","0","0.00","CASSA","4","0.00","2021-09-02","18:18:20","2021-09-02","2.43","0.00","0.00","0.00","0.00","13.50","0.00","0.00","0.00","0.00","0.00","0.00","2","1","11.07","0.00","0.00","0.00","0.00","22.00","0","0","0","0","0.00","0.00","","0325","null","1","2","3","4","5","0","0","0","null"
"","408","CAS_20210902181953563","1","SCONTRINO","68.00","0.00","0.00","68.00","CASSA","ASPORTO00001CAS_20210902181953563","02-09-21","18:20:20","PIZZERIA QUEEN","40","null","null","null","0.00","N","10","","0","0","0","0","","0","0","","0","0","","0","0","","0","0","0.00","CASSA","4","0.00","2021-09-02","18:19:58","2021-09-02","12.26","0.00","0.00","0.00","0.00","68.00","0.00","0.00","0.00","0.00","0.00","0.00","9","1","55.74","0.00","0.00","0.00","0.00","22.00","0","0","0","0","0.00","0.00","","0325","null","1","2","3","4","5","0","0","0","null"
"","409","CAS_2021090218202576","1","SCONTRINO","26.50","0.00","0.00","26.50","CASSA","ASPORTO00001CAS_2021090218202576","02-09-21","18:20:43","PIZZERIA QUEEN","41","null","null","null","0.00","N","10","","0","0","0","0","","0","0","","0","0","","0","0","","0","0","0.00","CASSA","4","0.00","2021-09-02","18:20:27","2021-09-02","4.78","0.00","0.00","0.00","0.00","26.50","0.00","0.00","0.00","0.00","0.00","0.00","3","1","21.72","0.00","0.00","0.00","0.00","22.00","0","0","0","0","0.00","0.00","","0325","null","1","2","3","4","5","0","0","0","null"
"","410","CAS_2021090218205755","1","SCONTRINO","13.50","0.00","0.00","13.50","CASSA","ASPORTO00001CAS_2021090218205755","02-09-21","18:21:34","PIZZERIA QUEEN","42","null","null","null","0.00","N","10","","0","0","0","0","","0","0","","0","0","","0","0","","0","0","0.00","CASSA","4","0.00","2021-09-02","18:20:58","2021-09-02","2.43","0.00","0.00","0.00","0.00","13.50","0.00","0.00","0.00","0.00","0.00","0.00","2","1","11.07","0.00","0.00","0.00","0.00","22.00","0","0","0","0","0.00","0.00","","0325","null","1","2","3","4","5","0","0","0","null"
"","411","CAS_2021090218240130","1","SCONTRINO","23.00","0.00","0.00","23.00","CASSA","ASPORTO00001CAS_2021090218240130","02-09-21","18:24:22","PIZZERIA QUEEN","43","null","null","null","0.00","N","10","","0","0","0","0","","0","0","","0","0","","0","0","","0","0","0.00","CASSA","4","0.00","2021-09-02","18:24:02","2021-09-02","4.15","0.00","0.00","0.00","0.00","23.00","0.00","0.00","0.00","0.00","0.00","0.00","3","1","18.85","0.00","0.00","0.00","0.00","22.00","0","0","0","0","0.00","0.00","","0325","null","1","2","3","4","5","0","0","0","null"
"","412","CAS_20210902182513122","1","SCONTRINO","29.00","0.00","0.00","29.00","CASSA","ASPORTO00001CAS_20210902182513122","02-09-21","18:25:31","PIZZERIA QUEEN","44","null","null","null","0.00","N","10","","0","0","0","0","","0","0","","0","0","","0","0","","0","0","0.00","CASSA","4","0.00","2021-09-02","18:25:14","2021-09-02","5.23","0.00","0.00","0.00","0.00","29.00","0.00","0.00","0.00","0.00","0.00","0.00","4","1","23.77","0.00","0.00","0.00","0.00","22.00","0","0","0","0","0.00","0.00","","0325","null","1","2","3","4","5","0","0","0","null"