"","745","CAS_20210914154321936","1","SCONTRINO","15.50","0.00","0.00","15.50","CASSA","ASPORTO00001CAS_20210914154321936","14-09-21","15:43:50","PIZZERIA QUEEN","372","null","null","null","0.00","N","10","","0","0","0","0","","0","0","","0","0","","0","0","","0","0","0.00","CASSA","2","0.00","2021-09-14","15:43:22","2021-09-14","0.18","1.32","0.00","0.00","0.00","1.00","14.50","0.00","0.00","0.00","0.00","0.00","2","1","0.82","13.18","0.00","0.00","0.00","22.00","10.00","0","0","0","0.00","0.00","","0329","null","1","2","3","4","5","0","0","0","null"
"","746","CAS_20210914154321936","1","SCONTRINO","22.00","0.00","0.00","37.50","CASSA","ASPORTO00001CAS_20210914154321936","14-09-21","15:44:29","PIZZERIA QUEEN","373","null","null","null","0.00","N","10","","0","0","0","0","","0","0","","0","0","","0","0","","0","0","0.00","CASSA","2","0.00","2021-09-14","15:44:18","2021-09-14","0.27","1.86","0.00","0.00","0.00","1.50","20.50","0.00","0.00","0.00","0.00","0.00","5","1","1.23","18.64","0.00","0.00","0.00","22.00","10.00","0","0","0","0.00","0.00","","0329","null","1","2","3","4","5","0","0","0","null"
"","747","CAS_20210914154321936","1","SCONTRINO","15.50","0.00","0.00","53.00","CASSA","ASPORTO00001CAS_20210914154321936","14-09-21","15:45:03","PIZZERIA QUEEN","374","null","null","null","0.00","N","10","","0","0","0","0","","0","0","","0","0","","0","0","","0","0","0.00","CASSA","2","0.00","2021-09-14","15:44:42","2021-09-14","0.18","1.32","0.00","0.00","0.00","1.00","14.50","0.00","0.00","0.00","0.00","0.00","7","1","0.82","13.18","0.00","0.00","0.00","22.00","10.00","0","0","0","0.00","0.00","","0329","null","1","2","3","4","5","0","0","0","null"
"","748","CAS_20210914154321936","1","SCONTRINO","5.50","0.00","0.00","58.50","CASSA","ASPORTO00001CAS_20210914154321936","14-09-21","15:45:38","PIZZERIA QUEEN","375","null","null","null","0.00","N","10","","0","0","0","0","","0","0","","0","0","","0","0","","0","0","0.00","CASSA","2","0.00","2021-09-14","15:45:26","2021-09-14","0.09","0.45","0.00","0.00","0.00","0.50","5.00","0.00","0.00","0.00","0.00","0.00","8","1","0.41","4.55","0.00","0.00","0.00","22.00","10.00","0","0","0","0.00","0.00","","0329","null","1","2","3","4","5","0","0","0","null"
"","749","CAS_20210914154321936","1","SCONTRINO","9.00","0.00","0.00","67.50","CASSA","ASPORTO00001CAS_20210914154321936","14-09-21","15:45:59","PIZZERIA QUEEN","376","null","null","null","0.00","N","10","","0","0","0","0","","0","0","","0","0","","0","0","","0","0","0.00","CASSA","2","0.00","2021-09-14","15:45:47","2021-09-14","0.09","0.77","0.00","0.00","0.00","0.50","8.50","0.00","0.00","0.00","0.00","0.00","9","1","0.41","7.73","0.00","0.00","0.00","22.00","10.00","0","0","0","0.00","0.00","","0329","null","1","2","3","4","5","0","0","0","null"
"","750","CAS_20210914154321936","1","SCONTRINO","6.50","0.00","0.00","74.00","CASSA","ASPORTO00001CAS_20210914154321936","14-09-21","15:46:23","PIZZERIA QUEEN","377","null","null","null","0.00","N","10","","0","0","0","0","","0","0","","0","0","","0","0","","0","0","0.00","CASSA","2","0.00","2021-09-14","15:46:08","2021-09-14","0.09","0.55","0.00","0.00","0.00","0.50","6.00","0.00","0.00","0.00","0.00","0.00","10","1","0.41","5.45","0.00","0.00","0.00","22.00","10.00","0","0","0","0.00","0.00","","0329","null","1","2","3","4","5","0","0","0","null"
"","751","CAS_20210914154321936","1","SCONTRINO","10.50","0.00","0.00","84.50","CASSA","ASPORTO00001CAS_20210914154321936","14-09-21","15:46:41","PIZZERIA QUEEN","378","null","null","null","0.00","N","10","","0","0","0","0","","0","0","","0","0","","0","0","","0","0","0.00","CASSA","2","0.00","2021-09-14","15:46:32","2021-09-14","0.09","0.91","0.00","0.00","0.00","0.50","10.00","0.00","0.00","0.00","0.00","0.00","11","1","0.41","9.09","0.00","0.00","0.00","22.00","10.00","0","0","0","0.00","0.00","","0329","null","1","2","3","4","5","0","0","0","null"
"","752","CAS_20210914155253826","1","SCONTRINO","7.00","0.00","0.00","7.00","CASSA","ASPORTO00001CAS_20210914155253826","14-09-21","15:53:14","PIZZERIA QUEEN","379","null","null","null","0.00","N","10","","0","0","0","0","","0","0","","0","0","","0","0","","0","0","0.00","CASSA","2","0.00","2021-09-14","15:52:53","2021-09-14","0.09","0.59","0.00","0.00","0.00","0.50","6.50","0.00","0.00","0.00","0.00","0.00","1","1","0.41","5.91","0.00","0.00","0.00","22.00","10.00","0","0","0","0.00","0.00","","0329","null","1","2","3","4","5","0","0","0","null"
"","753","CAS_20210914155253826","1","SCONTRINO","6.50","0.00","0.00","13.00","CASSA","ASPORTO00001CAS_20210914155253826","14-09-21","15:53:25","PIZZERIA QUEEN","380","null","null","null","0.00","N","10","","0","0","0","0","","0","0","","0","0","","0","0","","0","0","0.00","CASSA","2","0.00","2021-09-14","15:53:15","2021-09-14","0.59","0.00","0.00","0.00","0.00","6.50","0.00","0.00","0.00","0.00","0.00","0.00","2","1","5.91","0.00","0.00","0.00","0.00","10.00","10.00","0","0","0","0.00","0.00","","0329","null","2","2","3","4","5","0","0","0","null"
"","754","CAS_20210914155346434","1","SCONTRINO","5.50","0.00","0.00","5.50","CASSA","ASPORTO00001CAS_20210914155346434","14-09-21","15:54:02","PIZZERIA QUEEN","381","null","null","null","0.00","N","10","","0","0","0","0","","0","0","","0","0","","0","0","","0","0","0.00","CASSA","2","0.00","2021-09-14","15:53:46","2021-09-14","0.09","0.45","0.00","0.00","0.00","0.50","5.00","0.00","0.00","0.00","0.00","0.00","1","1","0.41","4.55","0.00","0.00","0.00","22.00","10.00","0","0","0","0.00","0.00","","0329","null","1","2","3","4","5","0","0","0","null"
"","755","CAS_20210914155346434","1","SCONTRINO","8.00","0.00","0.00","13.50","CASSA","ASPORTO00001CAS_20210914155346434","14-09-21","15:54:14","PIZZERIA QUEEN","382","null","null","null","0.00","N","10","","0","0","0","0","","0","0","","0","0","","0","0","","0","0","0.00","CASSA","2","0.00","2021-09-14","15:54:04","2021-09-14","0.09","0.68","0.00","0.00","0.00","0.50","7.50","0.00","0.00","0.00","0.00","0.00","2","1","0.41","6.82","0.00","0.00","0.00","22.00","10.00","0","0","0","0.00","0.00","","0329","null","1","2","3","4","5","0","0","0","null"
"","756","CAS_20210914155346434","1","SCONTRINO","10.50","0.00","0.00","24.00","CASSA","ASPORTO00001CAS_20210914155346434","14-09-21","15:54:28","PIZZERIA QUEEN","383","null","null","null","0.00","N","10","","0","0","0","0","","0","0","","0","0","","0","0","","0","0","0.00","CASSA","2","0.00","2021-09-14","15:54:18","2021-09-14","0.09","0.91","0.00","0.00","0.00","0.50","10.00","0.00","0.00","0.00","0.00","0.00","3","1","0.41","9.09","0.00","0.00","0.00","22.00","10.00","0","0","0","0.00","0.00","","0329","null","1","2","3","4","5","0","0","0","null"
"","757","CAS_20210914155253826","1","SCONTRINO","9.00","0.00","0.00","22.00","CASSA","ASPORTO00001CAS_20210914155253826","14-09-21","16:40:32","PIZZERIA QUEEN","384","null","null","null","0.00","N","10","","0","0","0","0","","0","0","","0","0","","0","0","","0","0","0.00","CASSA","2","0.00","undefined","16:40:20","2021-09-14","0.27","0.68","0.00","0.00","0.00","1.50","7.50","0.00","0.00","0.00","0.00","0.00","3","1","1.23","6.82","0.00","0.00","0.00","22.00","10.00","0","0","0","0.00","0.00","","0329","null","1","2","3","4","5","0","0","0","null"
"","758","CAS_20210914164239444","1","SCONTRINO","31.00","0.00","0.00","31.00","CASSA","ASPORTO00001CAS_20210914164239444","14-09-21","16:42:56","PIZZERIA QUEEN","385","null","null","null","0.00","N","10","","0","0","0","0","","0","0","","0","0","","0","0","","0","0","0.00","CASSA","2","0.00","2021-09-14","16:42:40","2021-09-14","0.36","2.64","0.00","0.00","0.00","2.00","29.00","0.00","0.00","0.00","0.00","0.00","4","1","1.64","26.36","0.00","0.00","0.00","22.00","10.00","0","0","0","0.00","0.00","","0329","null","1","2","3","4","5","0","0","0","null"
"","759","CAS_20210914164324214","1","SCONTRINO","23.00","0.00","0.00","23.00","CASSA","ASPORTO00001CAS_20210914164324214","14-09-21","16:43:41","PIZZERIA QUEEN","386","null","null","null","0.00","N","10","","0","0","0","0","","0","0","","0","0","","0","0","","0","0","0.00","CASSA","2","0.00","2021-09-14","16:43:25","2021-09-14","0.27","1.95","0.00","0.00","0.00","1.50","21.50","0.00","0.00","0.00","0.00","0.00","3","1","1.23","19.55","0.00","0.00","0.00","22.00","10.00","0","0","0","0.00","0.00","","0329","null","1","2","3","4","5","0","0","0","null"
"","760","CAS_20210914164547796","1","SCONTRINO","17.00","0.00","0.00","17.00","CASSA","ASPORTO00001CAS_20210914164547796","14-09-21","16:47:45","PIZZERIA QUEEN","387","null","null","null","0.00","N","10","","0","0","0","0","","0","0","","0","0","","0","0","","0","0","0.00","CASSA","2","0.00","2021-09-14","16:45:48","2021-09-14","0.18","1.45","0.00","0.00","0.00","1.00","16.00","0.00","0.00","0.00","0.00","0.00","2","1","0.82","14.55","0.00","0.00","0.00","22.00","10.00","0","0","0","0.00","0.00","","0329","null","1","2","3","4","5","0","0","0","null"
"","761","CAS_20210914164800876","1","SCONTRINO","19.00","0.00","0.00","19.00","CASSA","ASPORTO00001CAS_20210914164800876","14-09-21","17:18:43","PIZZERIA QUEEN","388","null","null","null","0.00","N","10","","0","0","0","0","","0","0","","0","0","","0","0","","0","0","0.00","CASSA","2","0.00","2021-09-14","16:48:01","2021-09-14","0.18","1.64","0.00","0.00","0.00","1.00","18.00","0.00","0.00","0.00","0.00","0.00","2","1","0.82","16.36","0.00","0.00","0.00","22.00","10.00","0","0","0","0.00","0.00","","0329","null","1","2","3","4","5","0","0","0","null"
"","762","CAS_20210914172429711","1","SCONTRINO","9.00","0.00","0.00","9.00","CASSA","ASPORTO00001CAS_20210914172429711","14-09-21","17:26:33","PIZZERIA QUEEN","389","null","null","null","0.00","N","10","","0","0","0","0","","0","0","","0","0","","0","0","","0","0","0.00","CASSA","2","0.00","2021-09-14","17:24:29","2021-09-14","0.09","0.77","0.00","0.00","0.00","0.50","8.50","0.00","0.00","0.00","0.00","0.00","1","1","0.41","7.73","0.00","0.00","0.00","22.00","10.00","0","0","0","0.00","0.00","","0329","null","1","2","3","4","5","0","0","0","null"
"","763","CAS_20210914172429711","1","SCONTRINO","8.50","0.00","0.00","17.50","CASSA","ASPORTO00001CAS_20210914172429711","14-09-21","17:33:58","PIZZERIA QUEEN","390","null","null","null","0.00","N","10","","0","0","0","0","","0","0","","0","0","","0","0","","0","0","0.00","CASSA","2","0.00","2021-09-14","17:26:43","2021-09-14","0.09","0.73","0.00","0.00","0.00","0.50","8.00","0.00","0.00","0.00","0.00","0.00","2","1","0.41","7.27","0.00","0.00","0.00","22.00","10.00","0","0","0","0.00","0.00","","0329","null","1","2","3","4","5","0","0","0","null"
"","764","CAS_20210914180759367","1","SCONTRINO","14.50","0.00","0.00","14.50","CASSA","ASPORTO00001CAS_20210914180759367","14-09-21","18:08:21","PIZZERIA QUEEN","391","null","null","null","0.00","N","10","","0","0","0","0","","0","0","","0","0","","0","0","","0","0","0.00","CASSA","2","0.00","2021-09-14","18:07:59","2021-09-14","1.32","0.00","0.00","0.00","0.00","14.50","0.00","0.00","0.00","0.00","0.00","0.00","2","1","13.18","0.00","0.00","0.00","0.00","10.00","0","0","0","0","0.00","0.00","","0329","null","2","2","3","4","5","0","0","0","null"
"","765","CAS_20210914181705446","1","SCONTRINO","17.00","0.00","0.00","17.00","CASSA","ASPORTO00001CAS_20210914181705446","14-09-21","18:17:35","PIZZERIA QUEEN","392","null","null","null","0.00","N","10","","0","0","0","0","","0","0","","0","0","","0","0","","0","0","0.00","CASSA","2","0.00","2021-09-14","18:17:07","2021-09-14","0.54","1.27","0.00","0.00","0.00","3.00","14.00","0.00","0.00","0.00","0.00","0.00","4","1","2.46","12.73","0.00","0.00","0.00","22.00","10.00","0","0","0","0.00","0.00","","0329","null","1","2","3","4","5","0","0","0","null"
"","766","CAS_20210914181748596","1","SCONTRINO","68.50","0.00","0.00","68.50","CASSA","ASPORTO00001CAS_20210914181748596","14-09-21","18:18:25","PIZZERIA QUEEN","393","null","null","null","0.00","N","10","","0","0","0","0","","0","0","","0","0","","0","0","","0","0","0.00","CASSA","2","0.00","2021-09-14","18:18:14","2021-09-14","7.48","2.45","0.00","0.00","0.00","41.50","27.00","0.00","0.00","0.00","0.00","0.00","9","1","34.02","24.55","0.00","0.00","0.00","22.00","10.00","0","0","0","0.00","0.00","","0329","null","1","2","3","4","5","0","0","0","null"
"","767","CAS_20210915084556260","1","SCONTRINO","17.00","0.00","0.00","17.00","CASSA","ASPORTO00001CAS_20210915084556260","15-09-21","08:46:12","PIZZERIA QUEEN","394","null","null","null","0.00","N","10","","0","0","0","0","","0","0","","0","0","","0","0","","0","0","0.00","CASSA","3","0.00","2021-09-15","08:45:56","2021-09-15","0.18","1.45","0.00","0.00","0.00","1.00","16.00","0.00","0.00","0.00","0.00","0.00","2","1","0.82","14.55","0.00","0.00","0.00","22.00","10.00","0","0","0","0.00","0.00","","0329","null","1","2","3","4","5","0","0","0","null"
"","768","CAS_20210915084620648","1","SCONTRINO","20.00","0.00","0.00","20.00","CASSA","ASPORTO00001CAS_20210915084620648","15-09-21","08:46:44","PIZZERIA QUEEN","395","null","null","null","0.00","N","10","","0","0","0","0","","0","0","","0","0","","0","0","","0","0","0.00","CASSA","3","0.00","2021-09-15","08:46:25","2021-09-15","2.16","0.73","0.00","0.00","0.00","12.00","8.00","0.00","0.00","0.00","0.00","0.00","7","1","9.84","7.27","0.00","0.00","0.00","22.00","10.00","0","0","0","0.00","0.00","","0329","null","1","2","3","4","5","0","0","0","null"
"","769","CAS_20210915084556260","1","SCONTRINO","67.00","0.00","0.00","84.00","CASSA","ASPORTO00001CAS_20210915084556260","15-09-21","08:47:36","PIZZERIA QUEEN","396","null","null","null","0.00","N","10","","0","0","0","0","","0","0","","0","0","","0","0","","0","0","0.00","CASSA","3","0.00","2021-09-15","08:47:18","2021-09-15","0.72","5.73","0.00","0.00","0.00","4.00","63.00","0.00","0.00","0.00","0.00","0.00","10","1","3.28","57.27","0.00","0.00","0.00","22.00","10.00","0","0","0","0.00","0.00","","0329","null","1","2","3","4","5","0","0","0","null"
"","770","CAS_2021091508480836","1","SCONTRINO","30.00","0.00","0.00","30.00","CASSA","ASPORTO00001CAS_2021091508480836","15-09-21","08:48:23","PIZZERIA QUEEN","397","null","null","null","0.00","N","10","","0","0","0","0","","0","0","","0","0","","0","0","","0","0","0.00","CASSA","3","0.00","2021-09-15","08:48:12","2021-09-15","0.36","2.55","0.00","0.00","0.00","2.00","28.00","0.00","0.00","0.00","0.00","0.00","4","1","1.64","25.45","0.00","0.00","0.00","22.00","10.00","0","0","0","0.00","0.00","","0329","null","1","2","3","4","5","0","0","0","null"
"","771","CAS_2021091509085726","1","SCONTRINO","32.50","0.00","0.00","32.50","CASSA","ASPORTO00001CAS_2021091509085726","15-09-21","09:09:08","PIZZERIA QUEEN","398","null","null","null","0.00","N","10","","0","0","0","0","","0","0","","0","0","","0","0","","0","0","0.00","CASSA","3","0.00","2021-09-15","09:08:57","2021-09-15","2.95","0.00","0.00","0.00","0.00","32.50","0.00","0.00","0.00","0.00","0.00","0.00","4","1","29.55","0.00","0.00","0.00","0.00","10.00","10.00","0","0","0","0.00","0.00","","0329","null","2","2","3","4","5","0","0","0","null"
"","772","CAS_2021091509085726","1","SCONTRINO","2.00","0.00","0.00","34.50","CASSA","ASPORTO00001CAS_2021091509085726","15-09-21","09:09:57","PIZZERIA QUEEN","399","null","null","null","0.00","N","10","","0","0","0","0","","0","0","","0","0","","0","0","","0","0","0.00","CASSA","3","0.00","2021-09-15","09:08:57","2021-09-15","0.36","0.00","0.00","0.00","0.00","2.00","0.00","0.00","0.00","0.00","0.00","0.00","4","1","1.64","0.00","0.00","0.00","0.00","22.00","10.00","0","0","0","0.00","0.00","","0329","null","1","2","3","4","5","0","0","0","null"
"","773","CAS_2021091509085726","1","SCONTRINO","10.50","0.00","0.00","45.00","CASSA","ASPORTO00001CAS_2021091509085726","15-09-21","09:22:15","PIZZERIA QUEEN","400","null","null","null","0.00","N","10","","0","0","0","0","","0","0","","0","0","","0","0","","0","0","0.00","CASSA","3","0.00","undefined","undefined","2021-09-15","0.09","0.91","0.00","0.00","0.00","0.50","10.00","0.00","0.00","0.00","0.00","0.00","5","1","0.41","9.09","0.00","0.00","0.00","22.00","10.00","0","0","0","0.00","0.00","","0329","null","1","2","3","4","5","0","0","0","null"
"","774","CAS_20210915092315887","1","SCONTRINO","35.00","0.00","0.00","35.00","CASSA","ASPORTO00001CAS_20210915092315887","15-09-21","09:23:33","PIZZERIA QUEEN","401","null","null","null","0.00","N","10","","0","0","0","0","","0","0","","0","0","","0","0","","0","0","0.00","CASSA","3","0.00","2021-09-15","09:23:16","2021-09-15","0.36","3.00","0.00","0.00","0.00","2.00","33.00","0.00","0.00","0.00","0.00","0.00","4","1","1.64","30.00","0.00","0.00","0.00","22.00","10.00","0","0","0","0.00","0.00","","0329","null","1","2","3","4","5","0","0","0","null"
"","775","CAS_20210915092315887","1","SCONTRINO","59.50","0.00","0.00","94.50","CASSA","ASPORTO00001CAS_20210915092315887","15-09-21","09:24:30","PIZZERIA QUEEN","402","null","null","null","0.00","N","10","","0","0","0","0","","0","0","","0","0","","0","0","","0","0","0.00","CASSA","3","0.00","2021-09-15","09:24:18","2021-09-15","0.63","5.09","0.00","0.00","0.00","3.50","56.00","0.00","0.00","0.00","0.00","0.00","11","1","2.87","50.91","0.00","0.00","0.00","22.00","10.00","0","0","0","0.00","0.00","","0329","null","1","2","3","4","5","0","0","0","null"
"","776","CAS_20210915114110810","1","SCONTRINO","30.50","0.00","0.00","30.50","CASSA","ASPORTO00001CAS_20210915114110810","15-09-21","11:42:02","PIZZERIA QUEEN","403","null","null","null","0.00","N","10","","0","0","0","0","","0","0","","0","0","","0","0","","0","0","0.00","CASSA","3","0.00","2021-09-15","11:41:11","2021-09-15","0.36","2.59","0.00","0.00","0.00","2.00","28.50","0.00","0.00","0.00","0.00","0.00","4","1","1.64","25.91","0.00","0.00","0.00","22.00","10.00","0","0","0","0.00","0.00","","0329","null","1","2","3","4","5","0","0","0","null"
"","777","CAS_20210915114110810","1","SCONTRINO","8.50","0.00","0.00","39.00","CASSA","ASPORTO00001CAS_20210915114110810","15-09-21","11:43:11","PIZZERIA QUEEN","404","null","null","null","0.00","N","10","","0","0","0","0","","0","0","","0","0","","0","0","","0","0","0.00","CASSA","3","0.00","2021-09-15","11:42:54","2021-09-15","0.09","0.73","0.00","0.00","0.00","0.50","8.00","0.00","0.00","0.00","0.00","0.00","5","1","0.41","7.27","0.00","0.00","0.00","22.00","10.00","0","0","0","0.00","0.00","","0329","null","1","2","3","4","5","0","0","0","null"
"","778","CAS_20210915114534471","1","SCONTRINO","19.00","0.00","0.00","19.00","CASSA","ASPORTO00001CAS_20210915114534471","15-09-21","11:46:11","PIZZERIA QUEEN","405","null","null","null","0.00","N","10","","0","0","0","0","","0","0","","0","0","","0","0","","0","0","0.00","CASSA","3","0.00","2021-09-15","11:45:34","2021-09-15","0.18","1.64","0.00","0.00","0.00","1.00","18.00","0.00","0.00","0.00","0.00","0.00","2","1","0.82","16.36","0.00","0.00","0.00","22.00","10.00","0","0","0","0.00","0.00","","0329","null","1","2","3","4","5","0","0","0","null"
"","779","CAS_20210915114534471","1","SCONTRINO","38.50","0.00","0.00","57.50","CASSA","ASPORTO00001CAS_20210915114534471","15-09-21","11:49:19","PIZZERIA QUEEN","406","null","null","null","0.00","N","10","","0","0","0","0","","0","0","","0","0","","0","0","","0","0","0.00","CASSA","3","0.00","undefined","undefined","2021-09-15","0.27","3.36","0.00","0.00","0.00","1.50","37.00","0.00","0.00","0.00","0.00","0.00","7","1","1.23","33.64","0.00","0.00","0.00","22.00","10.00","0","0","0","0.00","0.00","","0329","null","1","2","3","4","5","0","0","0","null"
"","780","CAS_20210915115507576","1","SCONTRINO","30.50","0.00","0.00","30.50","CASSA","ASPORTO00001CAS_20210915115507576","15-09-21","11:55:42","PIZZERIA QUEEN","407","null","null","null","0.00","N","10","","0","0","0","0","","0","0","","0","0","","0","0","","0","0","0.00","CASSA","3","0.00","2021-09-15","11:55:08","2021-09-15","0.36","2.59","0.00","0.00","0.00","2.00","28.50","0.00","0.00","0.00","0.00","0.00","4","1","1.64","25.91","0.00","0.00","0.00","22.00","10.00","0","0","0","0.00","0.00","","0329","null","1","2","3","4","5","0","0","0","null"
"","781","CAS_20210915115625937","1","SCONTRINO","55.00","0.00","0.00","55.00","CASSA","ASPORTO00001CAS_20210915115625937","15-09-21","11:56:51","PIZZERIA QUEEN","408","null","null","null","0.00","N","10","","0","0","0","0","","0","0","","0","0","","0","0","","0","0","0.00","CASSA","3","0.00","2021-09-15","11:56:28","2021-09-15","0.45","4.77","0.00","0.00","0.00","2.50","52.50","0.00","0.00","0.00","0.00","0.00","7","1","2.05","47.73","0.00","0.00","0.00","22.00","10.00","0","0","0","0.00","0.00","","0329","null","1","2","3","4","5","0","0","0","null"
"","782","CAS_20210915115747457","1","SCONTRINO","58.00","0.00","0.00","58.00","CASSA","ASPORTO00001CAS_20210915115747457","15-09-21","11:59:00","PIZZERIA QUEEN","409","null","null","null","0.00","N","10","","0","0","0","0","","0","0","","0","0","","0","0","","0","0","0.00","CASSA","3","0.00","2021-09-15","11:58:49","2021-09-15","0.45","5.05","0.00","0.00","0.00","2.50","55.50","0.00","0.00","0.00","0.00","0.00","7","1","2.05","50.45","0.00","0.00","0.00","22.00","10.00","0","0","0","0.00","0.00","","0329","null","1","2","3","4","5","0","0","0","null"
"","783","CAS_20210915120024719","1","SCONTRINO","55.50","0.00","0.00","55.50","CASSA","ASPORTO00001CAS_20210915120024719","15-09-21","12:00:47","PIZZERIA QUEEN","410","null","null","null","0.00","N","10","","0","0","0","0","","0","0","","0","0","","0","0","","0","0","0.00","CASSA","3","0.00","2021-09-15","12:00:26","2021-09-15","0.45","4.82","0.00","0.00","0.00","2.50","53.00","0.00","0.00","0.00","0.00","0.00","7","1","2.05","48.18","0.00","0.00","0.00","22.00","10.00","0","0","0","0.00","0.00","","0329","null","1","2","3","4","5","0","0","0","null"
"","784","CAS_20210915120353911","1","SCONTRINO","65.00","0.00","0.00","65.00","CASSA","ASPORTO00001CAS_20210915120353911","15-09-21","12:04:13","PIZZERIA QUEEN","411","null","null","null","0.00","N","10","","0","0","0","0","","0","0","","0","0","","0","0","","0","0","0.00","CASSA","3","0.00","2021-09-15","12:03:55","2021-09-15","0.45","5.68","0.00","0.00","0.00","2.50","62.50","0.00","0.00","0.00","0.00","0.00","8","1","2.05","56.82","0.00","0.00","0.00","22.00","10.00","0","0","0","0.00","0.00","","0329","null","1","2","3","4","5","0","0","0","null"
"","785","CAS_2021091512044321","1","SCONTRINO","25.00","0.00","0.00","25.00","CASSA","ASPORTO00001CAS_2021091512044321","15-09-21","12:05:01","PIZZERIA QUEEN","412","null","null","null","0.00","N","10","","0","0","0","0","","0","0","","0","0","","0","0","","0","0","0.00","CASSA","3","0.00","2021-09-15","12:04:43","2021-09-15","0.27","2.14","0.00","0.00","0.00","1.50","23.50","0.00","0.00","0.00","0.00","0.00","3","1","1.23","21.36","0.00","0.00","0.00","22.00","10.00","0","0","0","0.00","0.00","","0329","null","1","2","3","4","5","0","0","0","null"
"","786","CAS_2021091512044321","1","SCONTRINO","37.00","0.00","0.00","62.00","CASSA","ASPORTO00001CAS_2021091512044321","15-09-21","12:05:49","PIZZERIA QUEEN","413","null","null","null","0.00","N","10","","0","0","0","0","","0","0","","0","0","","0","0","","0","0","0.00","CASSA","3","0.00","2021-09-15","12:05:37","2021-09-15","0.18","3.27","0.00","0.00","0.00","1.00","36.00","0.00","0.00","0.00","0.00","0.00","8","1","0.82","32.73","0.00","0.00","0.00","22.00","10.00","0","0","0","0.00","0.00","","0329","null","1","2","3","4","5","0","0","0","null"
"","787","CAS_20210915120757805","1","SCONTRINO","14.50","0.00","0.00","14.50","CASSA","ASPORTO00001CAS_20210915120757805","15-09-21","12:08:10","PIZZERIA QUEEN","414","null","null","null","0.00","N","10","","0","0","0","0","","0","0","","0","0","","0","0","","0","0","0.00","CASSA","3","0.00","2021-09-15","12:07:58","2021-09-15","0.18","1.23","0.00","0.00","0.00","1.00","13.50","0.00","0.00","0.00","0.00","0.00","2","1","0.82","12.27","0.00","0.00","0.00","22.00","10.00","0","0","0","0.00","0.00","","0329","null","1","2","3","4","5","0","0","0","null"
"","788","CAS_20210915120816436","1","SCONTRINO","27.00","0.00","0.00","27.00","CASSA","ASPORTO00001CAS_20210915120816436","15-09-21","12:08:46","PIZZERIA QUEEN","415","null","null","null","0.00","N","10","","0","0","0","0","","0","0","","0","0","","0","0","","0","0","0.00","CASSA","3","0.00","2021-09-15","12:08:25","2021-09-15","2.25","1.32","0.00","0.00","0.00","12.50","14.50","0.00","0.00","0.00","0.00","0.00","8","1","10.25","13.18","0.00","0.00","0.00","22.00","10.00","0","0","0","0.00","0.00","","0329","null","1","2","3","4","5","0","0","0","null"
"","789","CAS_20210915120757805","1","SCONTRINO","32.50","0.00","0.00","47.00","CASSA","ASPORTO00001CAS_20210915120757805","15-09-21","12:09:52","PIZZERIA QUEEN","416","null","null","null","0.00","N","10","","0","0","0","0","","0","0","","0","0","","0","0","","0","0","0.00","CASSA","3","0.00","2021-09-15","12:09:27","2021-09-15","0.27","2.82","0.00","0.00","0.00","1.50","31.00","0.00","0.00","0.00","0.00","0.00","6","1","1.23","28.18","0.00","0.00","0.00","22.00","10.00","0","0","0","0.00","0.00","","0329","null","1","2","3","4","5","0","0","0","null"
"","790","CAS_20210915121946812","1","SCONTRINO","71.00","0.00","0.00","71.00","CASSA","ASPORTO00001CAS_20210915121946812","15-09-21","12:20:06","PIZZERIA QUEEN","417","null","null","null","0.00","N","10","","0","0","0","0","","0","0","","0","0","","0","0","","0","0","0.00","CASSA","3","0.00","2021-09-15","12:19:49","2021-09-15","0.45","6.23","0.00","0.00","0.00","2.50","68.50","0.00","0.00","0.00","0.00","0.00","9","1","2.05","62.27","0.00","0.00","0.00","22.00","10.00","0","0","0","0.00","0.00","","0329","null","1","2","3","4","5","0","0","0","null"
"","791","CAS_20210915122017175","1","SCONTRINO","30.50","0.00","0.00","30.50","CASSA","ASPORTO00001CAS_20210915122017175","15-09-21","12:20:42","PIZZERIA QUEEN","418","null","null","null","0.00","N","10","","0","0","0","0","","0","0","","0","0","","0","0","","0","0","0.00","CASSA","3","0.00","2021-09-15","12:20:17","2021-09-15","0.36","2.59","0.00","0.00","0.00","2.00","28.50","0.00","0.00","0.00","0.00","0.00","4","1","1.64","25.91","0.00","0.00","0.00","22.00","10.00","0","0","0","0.00","0.00","","0329","null","1","2","3","4","5","0","0","0","null"
"","792","CAS_20210915122017175","1","SCONTRINO","15.00","0.00","0.00","45.50","CASSA","ASPORTO00001CAS_20210915122017175","15-09-21","12:21:05","PIZZERIA QUEEN","419","null","null","null","0.00","N","10","","0","0","0","0","","0","0","","0","0","","0","0","","0","0","0.00","CASSA","3","0.00","2021-09-15","12:20:51","2021-09-15","0.09","1.32","0.00","0.00","0.00","0.50","14.50","0.00","0.00","0.00","0.00","0.00","6","1","0.41","13.18","0.00","0.00","0.00","22.00","10.00","0","0","0","0.00","0.00","","0329","null","1","2","3","4","5","0","0","0","null"
"","793","CAS_20210915145832796","1","SCONTRINO","32.00","0.00","0.00","32.00","CASSA","ASPORTO00001CAS_20210915145832796","15-09-21","14:58:46","PIZZERIA QUEEN","422","null","null","null","0.00","N","10","","0","0","0","0","","0","0","","0","0","","0","0","","0","0","0.00","CASSA","3","0.00","2021-09-15","14:58:33","2021-09-15","0.36","2.73","0.00","0.00","0.00","2.00","30.00","0.00","0.00","0.00","0.00","0.00","4","1","1.64","27.27","0.00","0.00","0.00","22.00","10.00","0","0","0","0.00","0.00","","0329","null","1","2","3","4","5","0","0","0","null"
"","794","CAS_20210915150007848","1","SCONTRINO","26.50","0.00","0.00","26.50","CASSA","ASPORTO00001CAS_20210915150007848","15-09-21","15:00:19","PIZZERIA QUEEN","423","null","null","null","0.00","N","10","","0","0","0","0","","0","0","","0","0","","0","0","","0","0","0.00","CASSA","3","0.00","2021-09-15","15:00:08","2021-09-15","0.36","2.23","0.00","0.00","0.00","2.00","24.50","0.00","0.00","0.00","0.00","0.00","4","1","1.64","22.27","0.00","0.00","0.00","22.00","10.00","0","0","0","0.00","0.00","","0329","null","1","2","3","4","5","0","0","0","null"
"","795","CAS_20210915160544834","1","SCONTRINO","34.50","0.00","0.00","34.50","CASSA","ASPORTO00001CAS_20210915160544834","15-09-21","16:06:08","PIZZERIA QUEEN","424","null","null","null","0.00","N","10","","0","0","0","0","","0","0","","0","0","","0","0","","0","0","0.00","CASSA","3","0.00","2021-09-15","16:05:45","2021-09-15","0.36","2.95","0.00","0.00","0.00","2.00","32.50","0.00","0.00","0.00","0.00","0.00","4","1","1.64","29.55","0.00","0.00","0.00","22.00","10.00","0","0","0","0.00","0.00","","0329","null","1","2","3","4","5","0","0","0","null"
"","796","CAS_2021091518174323","1","SCONTRINO","10.20","0.00","0.00","10.20","CASSA","ASPORTO00001CAS_2021091518174323","15-09-21","18:18:19","PIZZERIA QUEEN","425","null","null","null","0.00","N","10","","0","0","0","0","","0","0","","0","0","","0","0","","0","0","0.00","CASSA","3","0.00","2021-09-15","18:17:43","2021-09-15","0.04","0.91","0.00","0.00","0.00","0.20","10.00","0.00","0.00","0.00","0.00","0.00","2","1","0.16","9.09","0.00","0.00","0.00","22.00","10.00","0","0","0","0.00","0.00","","0329","null","1","2","3","4","5","0","0","0","null"
"","797","CAS_2021091518174323","1","SCONTRINO","16.30","0.00","0.00","26.52","CASSA","ASPORTO00001CAS_2021091518174323","15-09-21","18:20:04","PIZZERIA QUEEN","426","null","null","null","0.00","N","10","","0","0","0","0","","0","0","","0","0","","0","0","","0","0","0.00","CASSA","3","0.00","2021-09-15","18:18:25","2021-09-15","0.06","1.45","0.00","0.00","0.00","0.32","16.00","0.00","0.00","0.00","0.00","0.00","4","1","0.26","14.55","0.00","0.00","0.00","22.00","10.00","0","0","0","0.00","0.00","","0329","null","1","2","3","4","5","0","0.02","0","null"
"","798","CAS_2021091518211719","1","SCONTRINO","13.50","0.00","0.00","13.50","CASSA","ASPORTO00001CAS_2021091518211719","15-09-21","18:21:28","PIZZERIA QUEEN","427","null","null","null","0.00","N","10","","0","0","0","0","","0","0","","0","0","","0","0","","0","0","0.00","CASSA","3","0.00","2021-09-15","18:21:17","2021-09-15","0.90","0.77","0.00","0.00","0.00","5.00","8.50","0.00","0.00","0.00","0.00","0.00","2","1","4.10","7.73","0.00","0.00","0.00","22.00","10.00","0","0","0","0.00","0.00","","0329","null","1","2","3","4","5","0","0","0","null"
"","799","CAS_2021091518211719","1","SCONTRINO","35.50","0.00","0.00","49.00","CASSA","ASPORTO00001CAS_2021091518211719","15-09-21","18:23:01","PIZZERIA QUEEN","428","null","null","null","0.00","N","10","","0","0","0","0","","0","0","","0","0","","0","0","","0","0","0.00","CASSA","3","0.00","2021-09-15","18:21:38","2021-09-15","3.23","0.00","0.00","0.00","0.00","35.50","0.00","0.00","0.00","0.00","0.00","0.00","6","1","32.27","0.00","0.00","0.00","0.00","10.00","10.00","0","0","0","0.00","0.00","","0329","null","2","2","3","4","5","0","0","0","null"
"","800","CAS_20210915182514629","1","SCONTRINO","25.50","0.00","0.00","25.50","CASSA","ASPORTO00001CAS_20210915182514629","15-09-21","18:26:44","PIZZERIA QUEEN","429","null","null","null","0.00","N","10","","0","0","0","0","","0","0","","0","0","","0","0","","0","0","0.00","CASSA","3","0.00","2021-09-15","18:26:22","2021-09-15","1.89","1.36","0.00","0.00","0.00","10.50","15.00","0.00","0.00","0.00","0.00","0.00","5","1","8.61","13.64","0.00","0.00","0.00","22.00","10.00","0","0","0","0.00","0.00","","0329","null","1","2","3","4","5","0","0","0","null"
"","801","CAS_20210915182514629","1","SCONTRINO","2.50","0.00","0.00","28.00","CASSA","ASPORTO00001CAS_20210915182514629","15-09-21","18:27:26","PIZZERIA QUEEN","430","null","null","null","0.00","N","10","","0","0","0","0","","0","0","","0","0","","0","0","","0","0","0.00","CASSA","3","0.00","2021-09-15","18:26:57","2021-09-15","0.45","0.00","0.00","0.00","0.00","2.50","0.00","0.00","0.00","0.00","0.00","0.00","9","1","2.05","0.00","0.00","0.00","0.00","22.00","10.00","0","0","0","0.00","0.00","","0329","null","1","2","3","4","5","0","0","0","null"
"","802","CAS_20210915182825829","1","SCONTRINO","34.00","0.00","0.00","34.00","CASSA","ASPORTO00001CAS_20210915182825829","15-09-21","18:35:06","PIZZERIA QUEEN","431","null","null","null","0.00","N","10","","0","0","0","0","","0","0","","0","0","","0","0","","0","0","0.00","CASSA","3","0.00","2021-09-15","18:31:53","2021-09-15","0.81","2.68","0.00","0.00","0.00","4.50","29.50","0.00","0.00","0.00","0.00","0.00","5","1","3.69","26.82","0.00","0.00","0.00","22.00","10.00","0","0","0","0.00","0.00","","0329","null","1","2","3","4","5","0","0","0","null"
"","803","CAS_20210915183556604","1","SCONTRINO","17.50","0.00","0.00","17.50","CASSA","ASPORTO00001CAS_20210915183556604","15-09-21","18:36:20","PIZZERIA QUEEN","432","null","null","null","0.00","N","10","","0","0","0","0","","0","0","","0","0","","0","0","","0","0","0.00","CASSA","3","0.00","2021-09-15","18:35:56","2021-09-15","0.54","1.32","0.00","0.00","0.00","3.00","14.50","0.00","0.00","0.00","0.00","0.00","3","1","2.46","13.18","0.00","0.00","0.00","22.00","10.00","0","0","0","0.00","0.00","","0329","null","1","2","3","4","5","0","0","0","null"
"","804","CAS_20210916093439447","","SCONTRINO","8.50","0.00","0.00","8.50","CASSA","ASPORTO00001CAS_20210916093439447","16-09-21","09:45:23","PIZZERIA QUEEN","437","null","null","null","0.00","N","10","","0","0","0","0","","0","0","","0","0","","0","0","","0","0","0.00","CASSA","4","0.00","2021-09-16","09:35:44","2021-09-16","0.90","0.32","0.00","0.00","0.00","5.00","3.50","0.00","0.00","0.00","0.00","0.00","7","1","4.10","3.18","0.00","0.00","0.00","22.00","10.00","0","0","0","0.00","0.00","","0329","null","1","2","3","4","5","0","0","0","null"
"","805","CAS_20210916093439447","","SCONTRINO","27.00","0.00","0.00","35.50","CASSA","ASPORTO00001CAS_20210916093439447","16-09-21","09:46:33","PIZZERIA QUEEN","438","null","null","null","0.00","N","10","","0","0","0","0","","0","0","","0","0","","0","0","","0","0","0.00","CASSA","4","0.00","2021-09-16","09:46:18","2021-09-16","2.43","1.23","0.00","0.00","0.00","13.50","13.50","0.00","0.00","0.00","0.00","0.00","16","1","11.07","12.27","0.00","0.00","0.00","22.00","10.00","0","0","0","0.00","0.00","","0329","null","1","2","3","4","5","0","0","0","null"
"","806","CAS_20210916104552539","1","SCONTRINO","15.30","0.00","0.00","15.30","CASSA","ASPORTO00001CAS_20210916104552539","16-09-21","10:55:20","PIZZERIA QUEEN","439","null","null","null","0.00","N","10","","0","0","0","0","","0","0","","0","0","","0","0","","0","0","0.00","CASSA","4","0.00","undefined","undefined","2021-09-16","0.05","1.36","0.00","0.00","0.00","0.30","15.00","0.00","0.00","0.00","0.00","0.00","2","1","0.25","13.64","0.00","0.00","0.00","22.00","10.00","0","0","0","0.00","0.00","","0329","null","1","2","3","4","5","0","0","0","null"
"","807","CAS_2021091610445228","1","SCONTRINO","39.80","0.00","0.00","39.78","CASSA","ASPORTO00001CAS_2021091610445228","16-09-21","10:57:09","PIZZERIA QUEEN","440","null","null","null","0.00","N","10","","0","0","0","0","","0","0","","0","0","","0","0","","0","0","0.00","CASSA","4","0.00","undefined","undefined","2021-09-16","0.14","3.55","0.00","0.00","0.00","0.78","39.00","0.00","0.00","0.00","0.00","0.00","5","1","0.64","35.45","0.00","0.00","0.00","22.00","10.00","0","0","0","0.00","0.00","","0329","null","1","2","3","4","5","0","0","0.02","null"
"","808","CAS_20210916093252438","","SCONTRINO","14.00","0.00","0.00","14.00","CASSA","ASPORTO00001CAS_20210916093252438","16-09-21","10:58:15","PIZZERIA QUEEN","441","null","null","null","0.00","N","10","","0","0","0","0","","0","0","","0","0","","0","0","","0","0","0.00","CASSA","4","0.00","undefined","undefined","2021-09-16","2.52","0.00","0.00","0.00","0.00","14.00","0.00","0.00","0.00","0.00","0.00","0.00","5","1","11.48","0.00","0.00","0.00","0.00","22.00","0","0","0","0","0.00","0.00","","0329","null","1","2","3","4","5","0","0","0","null"
"","809","CAS_20210916114747321","1","SCONTRINO","27.50","0.00","0.00","27.50","CASSA","ASPORTO00001CAS_20210916114747321","16-09-21","11:48:14","PIZZERIA QUEEN","442","null","null","null","0.00","N","10","","0","0","0","0","","0","0","","0","0","","0","0","","0","0","0.00","CASSA","4","0.00","2021-09-16","11:47:47","2021-09-16","0.54","2.23","0.00","0.00","0.00","3.00","24.50","0.00","0.00","0.00","0.00","0.00","3","1","2.46","22.27","0.00","0.00","0.00","22.00","10.00","0","0","0","0.00","0.00","","0329","null","1","2","3","4","5","0","0","0","null"
"","810","CAS_20210916115130651","1","SCONTRINO","34.00","0.00","0.00","34.00","CASSA","ASPORTO00001CAS_20210916115130651","16-09-21","11:51:54","PIZZERIA QUEEN","443","null","null","null","0.00","N","10","","0","0","0","0","","0","0","","0","0","","0","0","","0","0","0.00","CASSA","4","0.00","2021-09-16","11:51:32","2021-09-16","0.72","2.73","0.00","0.00","0.00","4.00","30.00","0.00","0.00","0.00","0.00","0.00","4","1","3.28","27.27","0.00","0.00","0.00","22.00","10.00","0","0","0","0.00","0.00","","0329","null","1","2","3","4","5","0","0","0","null"
"","811","CAS_20210916115130651","1","SCONTRINO","7.00","0.00","0.00","41.00","CASSA","ASPORTO00001CAS_20210916115130651","16-09-21","11:57:42","PIZZERIA QUEEN","445","null","null","null","0.00","N","10","","0","0","0","0","","0","0","","0","0","","0","0","","0","0","0.00","CASSA","4","0.00","undefined","11:57:31","2021-09-16","0.64","0.00","0.00","0.00","0.00","7.00","0.00","0.00","0.00","0.00","0.00","0.00","5","1","6.36","0.00","0.00","0.00","0.00","10.00","0","0","0","0","0.00","0.00","","0329","null","2","2","3","4","5","0","0","0","null"
"","812","CAS_20210916121137551","1","SCONTRINO","30.50","0.00","0.00","30.50","CASSA","ASPORTO00001CAS_20210916121137551","16-09-21","12:11:57","PIZZERIA QUEEN","2","null","null","null","0.00","N","10","","0","0","0","0","","0","0","","0","0","","0","0","","0","0","0.00","CASSA","4","0.00","2021-09-16","12:11:38","2021-09-16","0.18","2.68","0.00","0.00","0.00","1.00","29.50","0.00","0.00","0.00","0.00","0.00","4","1","0.82","26.82","0.00","0.00","0.00","22.00","10.00","0","0","0","0.00","0.00","","0330","null","1","2","3","4","5","0","0","0","null"
"","","CAS_20210916104552539","1","SCONTRINO","0.70","0.00","0.00","16.00","CASSA","ASPORTO00001CAS_20210916104552539","16-09-21","15:53:14","PIZZERIA QUEEN","3","","","","0.00","N","10","","0","0","0","0","","0","0","","0","0","","0","0","","0","0","0.00","CASSA","4","0.00","undefined","undefined","2021-09-16","0.13","0.00","0.00","0.00","0.00","0.70","0.00","0.00","0.00","0.00","0.00","0.00","2","1","0.57","0.00","0.00","0.00","0.00","22.00","0","0","0","0","0.00","0.00","","0330","","1","2","3","4","5","0","0","0",""
"","","CAS_20210916155554189","1","SCONTRINO","8.50","0.00","0.00","8.50","CASSA","ASPORTO00001CAS_20210916155554189","16-09-21","15:56:11","PIZZERIA QUEEN","4","","","","0.00","N","10","","0","0","0","0","","0","0","","0","0","","0","0","","0","0","0.00","CASSA","4","0.00","2021-09-16","15:55:54","2021-09-16","0.18","0.68","0.00","0.00","0.00","1.00","7.50","0.00","0.00","0.00","0.00","0.00","1","1","0.82","6.82","0.00","0.00","0.00","22.00","10.00","0","0","0","0.00","0.00","","0330","","1","2","3","4","5","0","0","0",""
"","","CAS_20210916155554189","1","SCONTRINO","7.50","0.00","0.00","16.00","CASSA","ASPORTO00001CAS_20210916155554189","16-09-21","15:56:38","PIZZERIA QUEEN","5","","","","0.00","N","10","","0","0","0","0","","0","0","","0","0","","0","0","","0","0","0.00","CASSA","4","0.00","2021-09-16","15:56:23","2021-09-16","0.68","0.00","0.00","0.00","0.00","7.50","0.00","0.00","0.00","0.00","0.00","0.00","2","1","6.82","0.00","0.00","0.00","0.00","10.00","10.00","0","0","0","0.00","0.00","","0330","","2","2","3","4","5","0","0","0",""
"","","CAS_20210916121429350","1","SCONTRINO","33.50","0.00","0.00","33.50","CASSA","ASPORTO00001CAS_20210916121429350","16-09-21","16:04:08","PIZZERIA QUEEN","6","","","","0.00","N","10","","0","0","0","0","","0","0","","0","0","","0","0","","0","0","0.00","CASSA","4","0.00","2021-09-16","15:56:23","2021-09-16","0.18","2.95","0.00","0.00","0.00","1.00","32.50","0.00","0.00","0.00","0.00","0.00","4","1","0.82","29.55","0.00","0.00","0.00","22.00","10.00","0","0","0","0.00","0.00","","0330","","1","2","3","4","5","0","0","0",""
"","","CAS_20210916114426820","1","SCONTRINO","25.50","0.00","0.00","25.50","CASSA","ASPORTO00001CAS_20210916114426820","16-09-21","16:04:35","PIZZERIA QUEEN","7","","","","0.00","N","10","","0","0","0","0","","0","0","","0","0","","0","0","","0","0","0.00","CASSA","4","0.00","2021-09-16","15:56:23","2021-09-16","0.18","2.23","0.00","0.00","0.00","1.00","24.50","0.00","0.00","0.00","0.00","0.00","3","1","0.82","22.27","0.00","0.00","0.00","22.00","10.00","0","0","0","0.00","0.00","","0330","","1","2","3","4","5","0","0","0",""